0.590654
32
300
1
2.97422 3.01525 2.97001 3.01019 3.26131 2.63329 2.90167 3.13546 3.25169 3.18283 2.84036 3.13881 3.06466 3.42758 2.60475 2.68659 2.80894 3.20507 2.69956 2.76978 2.57509 2.56359 3.482 3.25038 3.40292 3.02839 3.04096 3.42978 3.20802 2.85869 2.987 2.75959 
3.09821 2.57948 2.8045 3.19132 3.12428 2.73486 3.12697 2.40802 3.30832 2.55127 2.96365 2.85736 2.61106 3.08336 2.84474 2.39673 2.64348 2.47615 2.89048 2.45054 3.23352 2.39377 3.20795 2.98102 3.21091 2.76466 3.19495 2.6551 2.43731 2.85098 3.05035 2.47673 
-3.20228 -2.89987 -2.61247 -3.35721 -2.94999 -3.17292 -2.55071 -3.33865 -3.043 -2.66824 -3.23653 -2.76203 -3.24832 -3.2323 -2.60622 -2.54616 -3.40106 -2.78382 -3.07071 -2.69642 -3.24857 -3.01035 -2.69821 -2.97425 -2.85038 -2.6285 -2.7762 -3.01374 -3.37115 -3.09326 -3.03971 -2.78438 
-3.3053 -3.41834 -3.15476 -2.8351 -2.7174 -3.00233 -3.4548 -2.85943 -2.88588 -3.27156 -3.18834 -2.61761 -2.90207 -2.70923 -3.35938 -2.87244 -2.92992 -3.04076 -2.76039 -3.06518 -2.61954 -2.77532 -2.92764 -3.37694 -3.46245 -2.93913 -3.23638 -3.34582 -3.03705 -2.85729 -2.84746 -3.42046 
-2.67079 -2.79651 -2.78732 -2.71647 -2.47192 -2.79556 -2.59926 -2.69701 -2.38116 -2.99159 -3.07912 -3.0218 -2.25974 -2.57047 -2.67603 -2.52828 -2.49538 -2.6032 -2.5047 -2.6976 -2.94767 -3.12874 -2.66201 -3.01472 -2.5623 -2.8438 -2.58439 -2.64667 -2.82406 -2.47964 -2.27594 -2.95195 
-2.45116 -3.05903 -2.76629 -2.74394 -2.74635 -2.55076 -2.638 -2.23256 -2.36116 -2.78026 -2.68981 -2.64217 -2.34973 -3.00916 -2.5324 -2.83966 -2.43888 -2.96254 -2.23705 -2.60027 -2.8846 -2.44925 -2.93503 -2.32377 -2.59258 -2.36773 -2.49013 -2.26599 -2.39292 -2.81871 -2.99615 -2.43979 
3.45667 3.16219 3.03101 3.21297 3.515 2.94491 2.54525 2.87917 2.52584 2.99246 2.79885 2.98944 3.34384 2.73892 2.98718 2.98318 3.13304 2.73878 2.8354 3.02719 2.82637 3.39677 3.02638 2.91177 3.05397 3.30961 2.76245 3.45902 2.56003 3.15948 2.79912 2.56733 
2.76803 3.62148 2.81149 2.7291 2.79488 3.44146 3.65737 3.39017 3.28452 3.12114 3.15773 3.59475 3.58691 3.36599 3.26553 2.83606 2.78607 2.76214 3.13108 3.36272 2.74071 2.83046 2.70615 3.38262 2.80077 2.81077 2.8461 3.20751 3.32004 3.36731 2.90596 3.15257 
-2.34494 -2.44007 -2.73783 -2.74066 -2.70824 -3.11215 -2.59875 -2.23132 -2.68303 -3.00311 -2.30804 -2.20489 -2.96294 -2.47531 -2.23744 -3.06871 -2.51156 -3.10323 -2.17496 -2.51021 -2.86238 -2.36191 -2.45551 -2.59717 -2.63531 -2.34254 -2.94555 -2.19202 -2.88628 -2.24709 -3.03939 -3.05319 
5.40658 5.9858 5.69932 6.29583 6.11978 5.39643 5.61178 5.87357 6.48556 5.75192 6.29572 6.30957 6.20968 6.17447 6.03279 5.93699 5.44247 5.60052 5.81698 5.43926 6.16665 5.64038 6.0214 5.76453 5.82446 5.93009 6.2745 6.13043 6.02627 5.42859 5.65731 6.04902 
-2.57741 -3.08493 -2.60446 -2.58522 -2.59006 -3.15626 -2.34836 -2.5797 -3.09166 -2.30738 -3.32151 -3.15564 -2.30333 -3.3439 -3.00279 -2.64881 -3.28768 -2.374 -2.26544 -3.31235 -2.98132 -2.4726 -2.93982 -2.98503 -3.1324 -3.1434 -2.84004 -2.93045 -2.78196 -2.63452 -2.71354 -2.69929 
-3.32393 -2.92804 -3.1384 -2.77177 -2.917 -3.09897 -3.6095 -2.69567 -3.58154 -2.64417 -3.7016 -3.67946 -3.28236 -3.28196 -3.37661 -3.08587 -3.66142 -3.18551 -3.53376 -3.67318 -3.19547 -3.43726 -3.42028 -2.97151 -3.56177 -2.68662 -2.94636 -3.40881 -3.41052 -2.88692 -3.19813 -3.12258 
5.80062 6.46876 6.26372 5.99091 6.7221 6.33503 6.21377 5.744 6.72249 6.09448 5.73476 6.21528 6.44164 5.76294 6.71595 6.75626 6.64359 6.03085 5.80836 6.34203 6.10477 6.54913 6.38285 5.86433 6.62966 6.39032 6.48951 6.35146 5.7456 6.57311 6.30773 6.26817 
-2.40973 -2.94855 -2.73843 -2.90629 -2.23665 -2.77234 -2.82921 -2.37741 -2.16638 -2.99698 -2.74985 -3.04897 -2.38868 -2.33286 -2.86804 -2.59703 -2.81995 -2.35783 -2.20652 -2.38631 -2.55302 -2.82942 -2.68614 -2.74505 -2.20296 -2.74517 -2.25733 -2.06314 -2.90833 -2.15372 -2.09399 -2.57287 
-1.3308 -1.04282 -1.36717 -1.73486 -1.01208 -1.64249 -0.896281 -1.44715 -1.24456 -1.71918 -1.7871 -1.45109 -1.57457 -1.08486 -1.54652 -1.5846 -1.48449 -1.76748 -1.38301 -1.41523 -1.32525 -0.973363 -1.0837 -1.2311 -1.74699 -0.842607 -0.864674 -1.521 -1.62037 -1.29266 -1.68711 -1.73446 
-2.95371 -3.06736 -3.28597 -3.77142 -3.02931 -3.31316 -3.1618 -3.26857 -3.24463 -3.13376 -3.40595 -3.09335 -3.08194 -3.77627 -3.74878 -3.22441 -3.55874 -2.8343 -2.88619 -3.37072 -3.53672 -3.20265 -3.28276 -3.55876 -3.37422 -2.99538 -3.45261 -2.95629 -2.7858 -2.84787 -3.65729 -2.82015 
-2.97806 -2.48578 -2.57055 -2.34866 -2.84526 -2.62994 -2.65611 -3.24598 -2.56421 -2.62044 -3.09867 -3.11475 -3.09864 -2.4468 -2.80119 -3.10139 -2.89831 -2.57534 -2.36304 -2.94919 -2.67512 -2.55761 -2.60858 -3.20295 -3.18305 -2.52148 -2.51741 -2.38291 -3.00997 -2.6454 -3.14404 -3.0398 
-1.54005 -1.88192 -1.50452 -1.62547 -0.986716 -0.994053 -1.14111 -1.07478 -1.0518 -1.61158 -1.53928 -1.46473 -1.72966 -1.77899 -1.75236 -1.09354 -1.82855 -1.02209 -1.62601 -1.67065 -1.19753 -1.6971 -1.12239 -0.984925 -1.6911 -1.85567 -1.80454 -1.60929 -1.81596 -1.05667 -0.971092 -1.88346 
5.9385 6.28255 6.61354 6.59779 6.2117 5.74862 6.07246 6.34489 6.13718 6.56107 6.57142 6.23562 6.1366 6.18418 5.84782 6.73289 6.07231 5.83251 6.46951 6.30568 6.66334 6.33954 6.57393 6.08436 6.30214 6.69373 5.94384 5.88784 6.4907 6.0965 6.47677 5.99902 
6.31005 6.1585 5.96685 6.38816 6.23931 5.9606 6.75009 6.56853 6.16596 6.17603 6.02231 6.26792 6.37198 6.52527 6.45922 6.73514 6.479 6.72032 6.57932 6.70386 6.4464 6.64309 5.91193 6.45916 6.25451 6.41206 6.49191 6.53813 6.34707 6.19411 6.89275 6.33766 
-2.81551 -2.93486 -3.18895 -2.76658 -3.19378 -2.37238 -2.90705 -3.01367 -3.07317 -2.28396 -2.30566 -2.69174 -2.88876 -3.04639 -2.96676 -2.86726 -3.18986 -2.5748 -2.6164 -2.36651 -3.04219 -3.07636 -3.13562 -2.56787 -2.58752 -2.20549 -2.37863 -2.87106 -2.50725 -2.77754 -2.58009 -2.22498 
6.21103 6.7458 6.68191 6.2668 6.20526 6.57663 6.16731 6.20392 6.38062 5.95166 6.63904 6.6924 6.03511 6.13378 6.35777 6.35679 6.60786 6.18672 6.86709 6.87618 6.57351 6.89818 6.15907 6.46494 6.00528 6.66994 6.37094 6.15132 6.14648 6.06884 6.02029 6.03553 
6.29787 6.48087 6.51983 6.51156 6.43011 5.79477 5.97955 6.15012 5.64123 6.47528 6.49021 6.59731 6.61154 5.79115 6.15091 6.13887 6.52633 5.86449 6.43719 6.02431 6.32192 6.21925 6.53459 6.40225 6.62911 6.54426 6.336 5.93265 6.36304 5.76223 5.66379 6.37581 
-2.59866 -2.99144 -3.50933 -3.5667 -3.06123 -2.6713 -3.78562 -3.12698 -2.97931 -2.97646 -2.88615 -3.21242 -3.42574 -3.47623 -3.07489 -3.72259 -2.62435 -3.34461 -3.21454 -3.67382 -3.23625 -3.48379 -3.70886 -2.75651 -3.40748 -2.66631 -2.61199 -3.6439 -3.5144 -2.6813 -2.86119 -3.00575 
-3.21095 -2.94909 -2.93952 -2.71531 -2.56203 -2.76578 -2.65999 -2.73427 -2.80393 -2.5202 -2.81511 -2.48021 -2.69066 -3.32619 -3.41553 -3.25075 -2.71679 -3.05759 -3.35241 -3.41007 -3.23291 -2.81474 -3.30842 -2.45076 -2.63181 -3.29639 -3.03339 -3.06256 -2.52909 -3.15628 -2.66311 -3.04337 
1.75976 2.21276 1.80597 1.74667 2.53296 2.5313 2.42387 1.71343 2.55051 2.59521 2.27528 1.85203 2.59022 2.50913 2.23245 2.48802 2.35105 2.65401 2.22055 2.13928 1.89849 2.47395 2.48526 1.8373 2.32529 2.62149 1.77704 1.70427 2.65315 2.37428 1.7315 1.93152 
-1.99562 -2.44629 -1.99562 -2.33922 -1.99562 -2.13985 -2.15987 -2.09659 -1.99562 -2.44536 -1.99562 -2.24479 -1.99562 -2.39315 -2.1455 -1.99562 -1.99562 -1.99562 -1.99562 -1.99562 -1.99562 -2.05384 -2.25595 -2.38711 -1.99562 -1.99562 -1.99562 -2.1655 -1.99562 -2.41458 -1.99562 -2.20113 
3.05295 2.90013 2.69434 2.76511 3.35442 3.22921 2.98984 3.05675 2.79605 3.31807 3.39169 3.1682 3.54559 2.71012 2.58607 2.60278 2.89379 2.65013 3.01505 2.94012 2.8362 3.41481 3.55946 2.94721 3.39532 3.48424 2.61849 3.42143 2.68958 3.48543 2.89732 2.96005 
-2.41442 -2.35756 -2.93258 -2.38073 -2.92948 -2.33562 -2.77078 -2.36562 -2.51432 -2.56315 -2.22361 -2.18547 -2.96344 -2.3724 -2.52096 -2.66445 -2.73002 -2.77428 -2.64524 -2.24474 -2.28517 -2.36369 -2.97773 -2.7261 -2.99434 -2.99467 -3.00505 -2.62419 -2.52157 -2.80157 -2.72074 -2.83184 
3.32142 3.25124 3.27243 3.10315 3.45245 2.81611 3.20756 2.97524 3.1873 3.43303 3.26799 2.85971 2.8802 2.7461 2.98877 3.34303 2.67507 3.02157 2.86563 3.48568 3.28676 3.02608 3.43407 2.68542 2.95706 3.21757 3.28038 2.82555 2.66734 3.23254 3.21479 2.81338 
-2.61359 -2.71636 -2.33728 -2.56782 -3.07032 -3.08623 -2.69525 -2.75383 -2.6443 -2.9065 -2.40481 -2.40135 -3.07956 -2.94021 -2.8427 -2.32602 -2.81611 -2.75194 -2.6792 -3.0304 -2.23898 -2.46126 -3.04772 -2.64708 -2.82704 -2.96457 -2.5734 -2.5886 -2.48876 -3.00215 -2.97704 -2.59524 
-2.62436 -2.8474 -2.74212 -3.00717 -2.47423 -2.57675 -3.03109 -2.79461 -3.106 -3.09352 -2.58756 -3.27511 -2.41123 -3.13218 -2.86734 -2.96991 -2.85057 -3.19344 -2.88537 -2.88274 -2.42786 -2.44424 -2.4318 -3.06373 -3.19966 -3.08695 -3.05809 -3.16542 -2.74602 -3.01659 -2.9889 -3.06664 
-2.571e+033 -2.571e+033 -2.571e+033 -2.571e+033 -2.571e+033 -2.571e+033 -2.571e+033 -2.571e+033 -2.571e+033 -2.571e+033 -2.571e+033 -2.571e+033 -2.571e+033 -2.571e+033 -2.571e+033 -2.571e+033 -2.571e+033 -2.571e+033 -2.571e+033 -2.571e+033 -2.571e+033 -2.571e+033 -2.571e+033 -2.571e+033 -2.571e+033 -2.571e+033 -2.571e+033 -2.571e+033 -2.571e+033 -2.571e+033 -2.571e+033 -2.571e+033 
0.0859096 0.463881 0.374645 0.584094 0.403394 0.2837 0.0845668 0.487014 0.97351 0.605853 0.413373 0.437269 0.846004 0.21897 0.681021 0.916837 0.74929 0.914945 0.080752 0.139409 0.161779 0.399579 0.571795 0.497421 0.596271 0.564745 0.68804 0.26075 0.128269 0.0279855 0.544053 0.683859 
0.700034 0.346141 0.819544 0.177313 0.23072 0.808802 0.0036317 0.699911 0.0651265 0.218207 0.680227 0.0279244 0.790887 0.561876 0.13538 0.0574969 0.956511 0.983795 0.0685141 0.79635 0.720908 0.960784 0.688223 0.201331 0.965819 0.0903653 0.973937 0.518052 0.902402 0.395947 0.385235 0.278359 
-2.60808e+034 -2.60808e+034 -2.60808e+034 -2.60808e+034 -2.60808e+034 -2.60808e+034 -2.60808e+034 -2.60808e+034 -2.60808e+034 -2.60808e+034 -2.60808e+034 -2.60808e+034 -2.60808e+034 -2.60808e+034 -2.60808e+034 -2.60808e+034 -2.60808e+034 -2.60808e+034 -2.60808e+034 -2.60808e+034 -2.60808e+034 -2.60808e+034 -2.60808e+034 -2.60808e+034 -2.60808e+034 -2.60808e+034 -2.60808e+034 -2.60808e+034 -2.60808e+034 -2.60808e+034 -2.60808e+034 -2.60808e+034 
0.983825 0.676504 0.814783 0.639149 0.283822 0.989898 0.470534 0.174993 0.293832 0.726432 0.103763 0.319071 0.0132756 0.263314 0.956298 0.725486 0.841853 0.816004 0.638203 0.294595 0.385357 0.145604 0.630207 0.792108 0.224403 0.378094 0.45146 0.469466 0.677145 0.840693 0.775048 0.843104 
0.0875576 0.322275 0.271828 0.287545 0.670247 0.663961 0.464156 0.59978 0.443159 0.0856044 0.370312 0.189978 0.279611 0.155522 0.221717 0.0560015 0.61034 0.808374 0.0330821 0.196997 0.807642 0.318552 0.30784 0.622822 0.781915 0.634816 0.659261 0.615284 0.822871 0.982452 0.628834 0.397839 
-5.07724e+029 -5.07724e+029 -5.07724e+029 -5.07724e+029 -5.07724e+029 -5.07724e+029 -5.07724e+029 -5.07724e+029 -5.07724e+029 -5.07724e+029 -5.07724e+029 -5.07724e+029 -5.07724e+029 -5.07724e+029 -5.07724e+029 -5.07724e+029 -5.07724e+029 -5.07724e+029 -5.07724e+029 -5.07724e+029 -5.07724e+029 -5.07724e+029 -5.07724e+029 -5.07724e+029 -5.07724e+029 -5.07724e+029 -5.07724e+029 -5.07724e+029 -5.07724e+029 -5.07724e+029 -5.07724e+029 -5.07724e+029 
0.225837 0.803919 0.668691 0.97821 0.736229 0.70867 0.633137 0.0896939 0.264077 0.907102 0.584521 0.917783 0.766289 0.341563 0.756767 0.0775781 0.946684 0.752556 0.872311 0.0703146 0.796289 0.183172 0.253456 0.0738853 0.846339 0.344951 0.350047 0.485519 0.165349 0.751366 0.964019 0.372539 
0.631977 0.0249641 0.952696 0.487686 0.513962 0.28489 0.691794 0.00491348 0.885403 0.0202338 0.0795312 0.632618 0.9129 0.356578 0.362804 0.259346 0.542314 0.120853 0.567095 0.789758 0.617084 0.611652 0.810968 0.325602 0.959197 0.480483 0.28666 0.349162 0.444655 0.631001 0.188055 0.0645161 
0.604236 0.541826 0.366955 0.553575 0.780725 0.919492 0.999176 0.902524 0.374157 0.0876492 0.0417798 0.955412 0.206275 0.0191046 0.762566 0.851009 0.535295 0.416425 0.122776 0.99881 0.75222 0.747581 0.295022 0.651082 0.290201 0.643178 0.0968963 0.726646 0.7781 0.561144 0.621998 0.0429701 
0.969054 0.125187 0.849269 0.612629 0.47618 0.0433363 0.512558 0.160558 0.845851 0.0128788 0.0106204 0.518265 0.00021363 0.51793 0.639882 0.0509964 0.580096 0.925596 0.930235 0.774865 0.219459 0.787439 0.3661 0.319102 0.282998 0.75219 0.273232 0.390698 0.0975372 0.996124 0.152684 0.897 
0.209052 0.577074 0.243599 0.382885 0.69628 0.618641 0.595477 0.938597 0.0722068 0.730796 0.431623 0.234474 0.804712 0.572985 0.0848109 0.839137 0.987548 0.966002 0.286508 0.476608 0.192969 0.458998 0.0907926 0.379742 0.0374157 0.757988 0.214301 0.395245 0.491134 0.921537 0.0734275 0.996979 
0.463179 0.730705 0.300211 0.863582 0.693228 0.138737 0.0176702 0.17719 0.481216 0.207404 0.656514 0.298685 0.286019 0.435469 0.593738 0.976348 0.724662 0.886502 0.395062 0.743889 0.00299081 0.0213324 0.942076 0.664327 0.30958 0.642232 0.225043 0.0755333 0.203284 0.854244 0.0836512 0.494491 
0.526597 0.450606 0.675588 0.335246 0.875484 0.628407 0.95526 0.598346 0.157079 0.440046 0.943419 0.186682 0.26664 0.887906 0.0691855 0.00488296 0.414716 0.0672323 0.365459 0.497879 0.136143 0.264748 0.798975 0.785333 0.511795 0.41789 0.516678 0.0480056 0.634602 0.842311 0.289102 0.322428 
0.850734 0.632557 0.932493 0.35963 0.807733 0.643452 0.990417 0.705161 0.840327 0.457289 0.456587 0.655568 0.725364 0.243934 0.820093 0.248238 0.337321 0.919614 0.213569 0.940947 0.235237 0.510727 0.946989 0.13657 0.712729 0.129154 0.20658 0.210364 0.34196 0.465072 0.201697 0.194861 
-3.13265e+033 -3.13265e+033 -3.13265e+033 -3.13265e+033 -3.13265e+033 -3.13265e+033 -3.13265e+033 -3.13265e+033 -3.13265e+033 -3.13265e+033 -3.13265e+033 -3.13265e+033 -3.13265e+033 -3.13265e+033 -3.13265e+033 -3.13265e+033 -3.13265e+033 -3.13265e+033 -3.13265e+033 -3.13265e+033 -3.13265e+033 -3.13265e+033 -3.13265e+033 -3.13265e+033 -3.13265e+033 -3.13265e+033 -3.13265e+033 -3.13265e+033 -3.13265e+033 -3.13265e+033 -3.13265e+033 -3.13265e+033 
1.18085 0.939777 1.67916 1.52765 1.76723 0.947455 1.5216 1.70069 1.28334 0.934223 1.16336 1.57775 1.5806 1.38754 1.22696 1.38902 1.09372 1.25286 0.955407 0.928417 1.49187 1.75789 1.10322 0.83163 1.47457 1.49949 1.58943 0.920156 1.40289 1.39775 1.04319 1.64243 
0.785527 0.418217 0.25573 0.62659 0.138052 0.410397 0.638844 0.931091 0.225239 1.01185 0.631624 0.378652 0.144156 0.880644 0.947955 0.263117 0.181861 0.13178 0.816924 0.687933 0.142931 0.489779 0.128097 0.270991 0.87807 0.827301 0.475689 0.0750406 0.0755259 0.944625 0.437155 0.980467 
0.161325 0.408716 0.158613 -0.528155 0.211811 0.0750637 0.390051 -0.206057 -0.178078 -0.552619 0.1884 -0.275962 -0.217706 -0.0292078 0.391915 -0.413245 0.329159 -0.23596 -0.183561 -0.108355 0.0177467 -0.0584611 -0.225948 -0.527934 0.259046 -0.292601 -0.571994 -0.0463501 -0.0650759 -0.120009 -0.220964 0.166147 
1.58553 1.48109 2.02798 1.58849 1.88105 1.70753 1.90715 2.26087 1.68497 1.95851 2.05677 2.33222 1.84516 2.18808 2.38407 2.14121 1.62485 2.27794 2.06382 1.72692 2.10325 1.68452 1.93905 2.25495 1.50508 1.91318 1.64318 2.4082 1.90787 2.02026 2.17089 2.34014 
0.790161 1.0696 1.22244 0.573046 1.00991 1.36632 0.606803 0.911711 0.800987 1.11502 1.21282 1.04612 0.57811 1.39262 1.13111 1.30492 0.655614 0.67002 1.34223 1.37222 1.33176 1.51148 0.675152 1.11082 0.969442 1.00506 1.02115 1.41049 0.808908 1.44063 0.935271 1.32449 
-0.48655 0.00633337 0.371554 -0.382127 -0.0659263 0.0820219 -0.445337 0.356899 0.211119 -0.138573 -0.147307 0.2302 -0.292371 0.327625 -0.587885 -0.436688 -0.0459391 0.177626 -0.272045 -0.245106 0.151426 0.248163 -0.2261 -0.45388 0.0160992 -0.0672901 -0.279011 -0.503492 -0.0309346 0.193108 0.0702214 -0.0488994 
0.594863 0.556907 0.345658 0.71225 0.62509 0.734458 0.756083 0.471694 1.02774 0.614072 0.521363 1.01713 0.653355 0.615859 0.901184 0.592632 0.22619 0.627978 0.59675 0.425232 0.536207 0.50136 0.957991 0.336287 0.0961533 0.144894 0.249851 0.918838 0.359628 0.160504 0.491672 0.31519 
0.113531 -0.390199 -0.359883 -0.355958 -0.252794 -0.601705 0.154438 -0.453489 -0.37615 -0.616415 0.248029 -0.566127 -0.512785 0.131516 -0.693672 -0.519935 -0.645549 -0.558198 -0.161777 -0.167251 -0.712865 0.148714 -0.155413 -0.363711 -0.0920513 -0.326322 -0.410161 -0.161995 -0.358261 -0.525479 0.0913876 -0.119825 
-1.22003 -1.9007 -1.42056 -1.4898 -1.84134 -1.3438 -1.8935 -1.39859 -1.97179 -1.7638 -2.01725 -1.23714 -1.52315 -1.80644 -1.29065 -1.91554 -2.09443 -1.9438 -1.74448 -1.28796 -1.68249 -1.48317 -1.48296 -1.63213 -1.22027 -1.41262 -1.36268 -1.31292 -1.34647 -1.27738 -1.85113 -2.09645 
-0.249136 -0.286981 -0.828032 -0.566742 -0.406436 -0.613818 -0.860627 -0.791775 -0.354908 -0.00481487 -0.683697 -0.66248 -0.226966 -0.565828 -0.630095 -0.231814 -0.197201 -0.322032 -0.70099 -0.173709 -0.542902 -0.741524 -0.799797 -0.0311573 -0.512866 -0.260277 -0.0617622 -0.082574 -0.848783 -0.201912 0.111617 0.11945 
0.455732 0.835184 0.914684 0.439516 0.60192 0.589642 0.776625 0.321445 1.1868 1.17573 0.390211 0.359747 0.356535 0.627089 0.539273 0.365504 0.364265 1.19066 0.932965 0.85557 0.323693 1.12014 1.10757 0.347702 1.04054 0.656736 0.605295 0.911968 0.625852 0.757302 0.480655 0.752805 
2.26353 2.19274 2.6087 2.1655 2.19728 2.1742 2.34241 2.03346 2.38515 2.6461 2.55268 2.65157 2.6007 2.42248 2.24546 1.75249 1.78579 1.89795 2.40847 2.08736 2.00842 1.84542 2.29637 2.41068 2.49272 2.20408 1.95466 2.62631 2.12915 2.49673 2.43537 2.09935 
-0.466003 -0.215793 -0.785308 -0.200727 -0.190165 -0.198704 -0.223542 -0.540366 -0.184247 -0.444872 -0.599984 -0.347693 -0.564372 -0.715892 -0.810488 -0.166481 -0.799415 -0.766011 -0.873111 -0.673631 -0.00385468 -0.244609 -0.606515 -0.751267 -0.223783 -0.451501 -0.56772 -0.387286 0.060928 -0.263781 -0.1019 -0.530786 
0.192333 0.637347 0.460687 0.777702 1.0051 0.657306 0.405235 0.477839 0.717702 1.01007 0.268748 0.929562 0.754355 1.06537 0.368735 0.374869 0.392692 0.757315 0.282851 0.62636 0.97479 0.874384 0.397483 0.542972 0.446283 0.839959 0.431756 0.592686 0.982603 0.650348 0.119934 0.942563 
0.372884 0.336772 0.65531 0.349066 0.0368458 -0.0195342 0.491095 0.284303 0.529664 0.774675 0.0392888 -0.0467319 0.276457 0.86076 0.828623 0.346291 0.349747 0.609108 0.631473 -0.0812515 0.255252 0.191127 0.314172 0.437254 0.252739 0.837109 0.765654 0.181827 0.143831 0.525739 0.263419 -0.0553934 
0.779205 1.359 0.826379 0.925756 1.18804 1.42023 0.611806 0.743633 1.19428 1.43043 1.35309 1.32208 0.699505 1.02532 0.841589 1.41898 0.587216 0.774934 0.663659 1.23665 1.19381 1.12203 1.387 0.666192 1.48514 1.15382 1.01694 1.11788 0.83179 1.02649 0.85985 1.5192 
0.19458 -0.246709 0.394188 -0.330592 0.413986 -0.318574 0.171187 -0.0696803 -0.153503 0.185776 0.268923 0.443859 0.340309 -0.00230817 0.58166 0.58871 -0.308807 -0.238748 0.228037 0.425264 -0.181998 0.114209 -0.19958 0.204095 0.638852 -0.0263781 0.168944 -0.0844877 -0.0672945 -0.152279 0.259242 0.0330252 
0.419011 0.83959 0.990795 0.361504 0.0611375 0.233089 0.371927 0.10861 0.54552 0.465763 0.972437 0.214999 1.01647 0.0690255 0.908043 0.789641 0.325052 0.470808 0.444247 0.834188 0.590376 0.431237 0.390576 0.180531 1.01204 0.793909 0.41731 0.686297 0.880241 0.541193 0.553686 0.865805 
-0.167215 -0.0534228 0.139635 -0.0125524 -0.337618 0.0770221 -0.280708 0.1794 -0.0473883 -0.246826 -0.396416 -0.135975 -0.335935 -0.0474811 0.106805 -0.159073 -0.314849 -0.273525 0.268415 0.147173 0.0836677 -0.17094 0.385649 0.42621 -0.319988 0.0795687 -0.187546 -0.253799 0.140039 0.104492 0.209271 0.178766 
2.04258 2.01551 1.78891 1.41404 1.43153 2.28075 1.69926 1.43559 1.98429 2.09725 1.70949 1.44118 1.89106 1.5289 2.34427 1.83805 2.18163 1.97288 2.0834 1.82504 1.60126 2.15295 1.95171 2.07175 1.83684 1.90932 1.88425 2.25794 1.92034 1.6505 1.62238 1.46191 
0.969943 1.61637 1.44135 1.34978 1.35631 1.16158 0.850128 1.55076 0.826924 1.24982 1.39884 0.877826 1.13406 1.75431 0.967352 1.28206 1.58783 1.31232 0.920957 1.26658 1.21754 1.44938 1.34211 1.75325 1.01411 1.0311 1.67113 1.37028 1.22872 1.43807 1.25055 1.60357 
0.023733 0.33385 0.473119 -0.201854 0.578267 0.360481 -0.0253773 -0.0309225 0.197619 -0.145068 -0.363228 0.313357 -0.122014 0.159093 0.450583 0.424692 0.1871 -0.186164 0.498175 0.0826737 0.115159 0.170004 0.123881 -0.238621 0.275841 0.1088 0.107238 0.342818 0.150477 0.233678 -0.113139 0.275035 
2.27211 2.55334 1.95544 1.88234 2.14702 2.00617 2.28023 1.75314 2.43114 2.50975 2.11579 2.08685 1.70655 2.54846 1.71153 2.10477 1.80944 2.43624 2.3916 2.03524 2.47584 2.17729 2.12183 2.03442 2.25765 1.79152 1.84574 1.62734 1.80711 2.13236 1.62901 1.70352 
1.01848 0.492256 0.571473 0.602246 1.04245 0.388262 0.942591 0.343554 1.14388 0.510374 1.11535 0.449904 0.888665 1.02943 0.644571 0.666225 0.573924 0.853416 0.791067 0.791219 0.352656 0.558586 0.256527 0.934748 0.918665 0.315023 1.0758 0.591796 1.07102 0.485062 0.537196 0.577668 
-3.63542 -3.61897 -2.94596 -3.53089 -3.51868 -3.52804 -3.31494 -3.82205 -3.27183 -3.75919 -3.01771 -2.96498 -2.89208 -3.70548 -3.25202 -3.6679 -3.54957 -3.14972 -3.18029 -3.517 -3.02522 -2.98696 -3.07728 -3.2139 -3.04703 -2.86329 -2.8668 -2.93046 -3.77524 -3.75269 -3.67603 -3.44996 
5.32601 5.83206 5.29975 5.47439 6.06504 6.00336 5.90712 5.69964 5.47181 5.44724 5.18666 6.06568 5.41395 5.83487 6.12259 5.36483 5.28212 5.54728 5.81934 5.73859 6.09169 6.06981 5.28109 5.91254 6.00236 6.01695 5.43375 5.40883 5.83705 5.2155 5.31486 5.2748 
2.81833 2.73389 3.30099 3.14772 2.87484 2.54497 2.68913 2.40932 2.59808 3.12429 3.32891 3.28022 3.22753 2.96785 2.59011 3.05022 2.8012 3.31943 3.28793 2.75349 2.83445 3.03922 3.04145 2.70336 2.63337 2.97424 2.55617 2.46115 2.97348 2.91378 2.48604 2.42542 
-0.209543 -0.684814 -0.605725 -0.329064 -0.575529 -0.541227 -0.185796 -0.131278 -0.676808 -0.329303 -0.64213 0.0310364 -0.462118 -0.152622 -0.360846 -0.160068 -0.212002 -0.0483236 -0.0274872 -0.680103 -0.204674 0.0835986 -0.246013 -0.370679 -0.640502 -0.608636 -0.651593 -0.280664 0.164255 -0.192728 -0.425092 -0.185525 
1.50564 1.53964 1.43318 1.17312 1.11644 1.39624 1.20729 1.19443 1.21745 1.1815 1.717 1.62206 1.1377 1.84762 1.91598 1.60767 1.33886 1.89535 1.20111 1.21633 1.44746 1.57281 1.03079 1.66278 1.09737 1.38086 1.25941 1.66958 1.7524 1.52805 1.42746 1.74111 
1.54695 2.05973 1.8624 1.68613 2.09296 2.14515 1.79374 1.84728 2.11517 1.41274 1.47993 1.3497 1.59877 1.56048 2.1143 1.69097 1.84309 1.35495 1.84524 2.11704 2.05134 2.10097 1.47273 1.2211 1.99174 1.7389 1.27472 1.71222 1.96168 1.90843 1.91899 1.92266 
0.455234 0.887805 0.357239 0.908039 0.0915666 0.401064 0.292965 0.472782 0.912892 0.510732 0.880328 1.03252 1.035 0.372071 0.650982 0.507265 0.703291 0.794785 0.0604071 0.381624 0.375215 0.105824 0.519363 0.750777 0.275982 0.618724 0.59968 0.836229 0.440128 0.637767 0.678265 0.172698 
0.686344 0.26177 0.712712 -0.00761035 0.116527 0.553345 -0.00185882 0.67258 0.300498 0.87797 0.340752 0.0647352 0.915921 0.477911 0.558045 0.498886 0.170769 0.012174 0.0719241 0.791145 0.532775 0.751074 0.181957 0.806587 -0.0387864 0.424338 0.622378 0.562165 0.220695 0.143274 0.951718 0.308586 
0.132633 0.297037 0.439344 0.244087 0.220435 0.363292 0.48793 0.647359 0.490463 0.732902 0.982696 0.924741 0.656728 0.389325 0.0967437 0.686087 0.00146492 0.650258 0.88345 0.25248 0.618641 0.562731 0.71572 0.462569 0.619709 0.409681 0.391797 0.480697 0.334391 0.233894 0.188055 0.763421 
-1.86222 -1.12039 -1.26334 -1.06781 -1.67512 -1.10457 -1.56509 -1.83269 -0.916996 -1.87912 -1.41001 -0.91462 -1.37298 -1.07829 -1.28643 -1.34594 -1.66434 -0.922646 -1.88612 -1.27015 -1.33688 -1.62238 -1.48469 -1.62124 -1.84125 -1.3837 -1.33645 -1.74328 -1.29966 -1.03711 -0.961217 -1.50405 
-3.05861 -2.78166 -3.02861 -3.04707 -3.19984 -2.98192 -2.77386 -2.97728 -3.34092 -2.65151 -2.871 -3.3494 -3.38842 -3.28849 -3.4721 -2.97351 -2.75156 -2.95248 -3.41412 -3.26619 -2.89208 -3.18732 -3.32235 -2.7645 -3.53885 -2.61676 -2.65258 -2.92455 -3.30852 -2.76436 -3.15711 -3.4699 
0.298135 0.380719 0.24485 0.267434 0.00265527 0.944212 0.509476 0.649342 0.206641 0.652303 0.317576 0.749993 0.362804 0.70983 0.86581 0.0466019 0.338817 0.115818 0.850856 0.867306 0.395001 0.855495 0.518662 0.369244 0.874783 0.953643 0.129399 0.268716 0.639454 0.295541 0.11948 0.479507 
-3.30639 -3.46062 -3.34168 -3.76287 -3.45699 -3.47938 -3.61075 -3.66499 -3.46853 -3.67911 -3.15598 -4.03212 -3.08891 -3.46098 -3.40253 -3.18054 -3.10163 -4.00485 -3.51997 -3.85867 -3.79708 -3.8715 -3.12812 -4.0436 -3.4714 -3.37185 -3.36251 -3.48597 -3.83899 -3.99287 -4.04916 -3.13712 
4.23673 3.8811 4.18257 3.44952 4.13675 4.08436 3.36107 4.10585 4.02694 3.66959 3.30455 4.05237 3.41061 3.29712 3.93774 4.20969 3.89111 3.36428 3.89102 3.77484 3.32813 3.72047 3.94438 3.89163 4.13655 3.75124 3.41576 3.74596 3.95438 3.72187 3.71409 3.93833 
0.663015 0.563524 0.661184 0.733696 0.630024 0.468154 0.266366 0.751854 0.701376 0.995849 0.100803 0.0682394 0.0762047 0.549364 0.454726 0.816553 0.84051 0.910642 0.36375 0.245949 0.678762 0.22956 0.267098 0.871181 0.0491043 0.6245 0.832057 0.124577 0.852382 0.299631 0.225471 0.666189 
-2.12836 -1.67981 -1.65334 -2.24125 -1.47249 -1.45263 -2.08323 -1.65585 -2.23103 -1.83241 -1.87188 -2.14875 -2.12532 -2.03482 -1.33577 -1.47479 -1.50746 -2.10487 -1.3792 -2.14613 -2.12272 -1.68904 -1.65657 -2.12506 -2.20647 -1.86498 -1.28294 -1.37014 -1.63036 -1.35419 -1.80168 -1.64703 
-3.00615 -2.50998 -2.98331 -3.01114 -2.88629 -2.65767 -2.93365 -2.65939 -3.36586 -3.334 -3.25273 -2.92281 -2.55829 -2.71809 -2.90131 -3.36003 -3.15681 -2.85345 -3.09763 -3.27719 -2.77075 -3.2542 -3.32877 -2.78734 -2.89797 -3.22337 -2.59413 -2.87043 -3.22536 -3.18257 -2.66392 -3.32416 
-3.79476 -3.18815 -3.33396 -3.40488 -3.86001 -3.27276 -3.73098 -3.6712 -3.25022 -3.67694 -3.44623 -3.8884 -2.99891 -3.83143 -3.01966 -3.48412 -3.16511 -3.07888 -3.36529 -3.363 -3.38948 -3.84321 -3.54648 -3.61154 -3.22323 -3.5973 -3.54297 -3.92239 -3.20945 -3.32793 -3.88018 -3.60807 
-1.04707 -1.32387 -1.11741 -1.35468 -0.826855 -1.23322 -0.896155 -1.69669 -1.11198 -1.30698 -1.25776 -0.801274 -1.46895 -1.57987 -1.33982 -0.982946 -1.20736 -0.849872 -1.13069 -1.67263 -1.33958 -1.61392 -0.990925 -1.7126 -1.10445 -1.41906 -1.01724 -1.12836 -0.980867 -1.66593 -0.959277 -1.25384 
-2.47941 -2.33188 -1.73862 -2.36067 -1.91855 -1.81991 -2.27655 -1.81147 -2.40897 -2.4967 -2.45787 -1.97501 -1.71761 -2.44077 -2.02731 -2.11045 -2.21146 -2.09774 -2.32018 -2.09393 -1.68908 -2.06641 -1.8395 -2.25829 -1.69506 -1.97886 -1.84723 -1.659 -1.71208 -2.44045 -1.82845 -2.11735 
6.27621 5.88094 5.89077 5.83012 5.45542 5.79823 6.15607 6.25879 5.54379 5.95246 5.55277 6.10816 6.26367 6.07745 5.73815 6.17989 6.06276 5.83097 5.53595 6.30979 6.22632 6.35349 5.71541 5.85492 6.09974 6.03029 5.60923 6.15101 6.17902 6.11426 5.54852 6.2332 
-2.2812 -2.15804 -1.99819 -1.84915 -1.7505 -1.78607 -1.767 -2.16453 -2.50416 -2.271 -2.3042 -2.46266 -2.10773 -2.54305 -2.52903 -1.9366 -2.10837 -2.06709 -1.8255 -1.90847 -2.49602 -1.93596 -1.88181 -2.11359 -1.73039 -1.79356 -1.87851 -2.47664 -2.30513 -2.26436 -2.15952 -2.6043 
4.52766 4.71312 4.47976 4.46962 4.39379 4.32662 4.82668 4.69618 4.43376 4.11872 4.40383 4.31895 4.43737 4.22844 4.72573 4.17055 4.82272 3.93738 3.95779 4.74126 4.04157 4.67456 4.01053 4.51204 4.21973 3.93574 4.16332 4.59739 4.65105 4.25082 4.86954 4.30069 
0.117435 0.715903 0.0473648 0.873257 0.832637 0.449599 0.194952 0.425611 0.0672018 0.439924 0.0342418 0.798914 0.306864 0.542863 0.558519 0.830409 0.0889615 0.498398 0.991607 0.0169378 0.917692 0.310038 0.274514 0.180487 0.892117 0.485794 0.967925 0.885739 0.078341 0.0463882 0.851741 0.765954 
2.74446 3.28936 2.59226 2.99699 2.96279 2.73028 3.21846 3.56943 2.93771 3.31302 3.0615 2.80006 3.29503 3.28169 3.55316 3.46542 2.76368 2.65009 2.67206 3.17233 2.62529 2.85054 3.56764 3.34451 3.20373 3.52397 3.00661 3.32262 3.32307 3.2778 2.58912 3.56204 
3.65728 3.27438 3.22141 3.0877 3.65142 3.14428 3.54901 3.82689 3.58791 3.69146 3.20869 3.74693 3.69177 3.19122 3.09475 3.57878 3.93045 3.70493 3.54114 3.1058 3.08797 3.05266 3.22686 3.58711 3.03089 3.02254 3.94173 3.49696 3.26171 3.95367 3.64309 3.58903 
-3.53899 -2.81378 -3.35539 -3.66166 -3.39396 -3.11576 -3.09918 -3.66284 -3.10154 -3.7566 -3.2316 -2.95851 -3.38819 -2.79921 -3.38961 -2.8814 -2.9847 -3.27259 -3.23374 -3.35654 -2.91703 -3.13287 -3.34067 -3.06818 -3.43583 -3.35796 -2.97186 -3.06412 -3.42103 -3.70572 -3.31811 -2.81696 
5.55409 5.78388 5.63448 6.3855 5.84224 5.85164 5.57574 6.16842 5.57654 5.81385 6.11928 5.53693 6.47913 5.9892 6.12345 6.00915 6.25743 5.95358 5.57144 6.07691 5.73646 5.96329 5.86577 6.35876 5.83884 6.26775 5.60468 5.63312 6.28633 6.19076 5.91561 5.66788 
4.98122 5.76124 5.81897 5.15898 5.51058 5.42532 5.2247 5.18955 4.94122 5.28373 5.51236 5.29851 5.87316 5.67626 5.04776 5.88467 5.51962 5.62783 5.05202 4.96408 5.25335 5.48838 5.2207 5.6002 5.50584 5.78251 5.83858 5.7928 5.54021 5.09368 4.95824 5.07065 
-2.72845 -3.2112 -3.3358 -3.33086 -3.20292 -2.60615 -3.20441 -3.1407 -3.18119 -2.60373 -3.02777 -3.41311 -2.61604 -3.16345 -2.98963 -2.91388 -2.81245 -3.08859 -2.93291 -3.05613 -3.1119 -2.9956 -2.65193 -2.96527 -3.24513 -3.02281 -3.24222 -3.1592 -3.49142 -3.222 -3.35605 -2.92243 
-0.473491 -0.66808 -0.707646 0.0951246 -0.152029 -0.063582 -0.52756 -0.699685 -0.420162 -0.187261 -0.736043 -0.25763 -0.410809 -0.63749 -0.0434389 -0.488866 -0.842959 -0.205038 -0.731066 -0.141101 -0.112068 -0.569252 -0.821833 -0.351178 -0.757141 -0.524889 0.039792 -0.755364 -0.672761 -0.554065 -0.878617 0.0368515 
-2.54451 -3.04093 -3.18064 -3.09123 -2.96409 -3.24508 -3.1162 -2.58751 -2.7491 -2.79685 -2.92195 -2.54454 -2.75332 -3.25772 -2.77934 -3.09078 -3.03377 -2.63228 -2.81928 -3.17552 -3.30355 -2.75209 -3.01269 -2.74241 -2.68074 -3.00459 -2.65146 -3.18155 -2.649 -3.15738 -3.08073 -2.9454 
-1.32976 -1.53738 -1.55014 -0.953568 -0.962876 -1.70565 -1.75265 -0.902207 -1.28843 -1.50323 -1.75774 -1.13117 -1.51096 -1.82158 -1.24304 -1.0288 -0.959951 -1.07508 -1.51493 -1.58023 -0.944176 -1.31992 -1.2737 -1.3523 -1.77471 -1.52752 -1.53618 -1.15184 -1.69982 -1.56879 -1.78927 -1.74928 
-2.36124 -2.12513 -2.47044 -2.94804 -2.97524 -2.23906 -2.57358 -2.6856 -2.27124 -2.14414 -2.32176 -2.34612 -2.19578 -2.36533 -2.8275 -2.51463 -2.26201 -2.92715 -2.05812 -2.24915 -2.77211 -2.30374 -2.05389 -2.38515 -2.95649 -2.88273 -2.72854 -2.82206 -2.75598 -2.5466 -2.23574 -2.27627 
-2.4489 -1.6626 -1.68403 -2.38969 -1.83986 -2.05041 -2.27978 -2.2926 -2.22413 -2.41413 -1.7257 -2.22451 -2.07987 -2.33279 -2.53519 -2.0746 -1.99659 -1.65377 -1.66685 -1.7544 -2.50785 -2.15578 -2.29254 -2.2243 -2.45242 -1.85937 -2.40048 -2.14231 -2.54017 -2.29778 -2.15651 -1.58666 
-3.63684 -3.81287 -3.76445 -3.0166 -3.82709 -3.65772 -2.99818 -3.02174 -3.87747 -2.94412 -2.97125 -3.34273 -3.1495 -3.52198 -3.76786 -3.16535 -3.29769 -3.3052 -3.5288 -3.19226 -3.45642 -3.63529 -3.48215 -3.31279 -3.64558 -3.90098 -3.64193 -3.48934 -3.47215 -3.32672 -3.76139 -3.74396 
-2.86544 -2.91417 -3.14254 -2.91567 -2.8746 -2.71424 -3.05009 -3.02603 -2.91668 -2.82198 -2.86251 -2.61788 -2.85983 -2.77665 -3.11016 -3.15737 -2.36016 -2.72591 -2.60652 -3.07718 -2.38184 -2.61294 -3.2242 -2.9246 -2.87552 -3.20856 -3.23913 -2.67162 -2.39729 -3.21233 -2.48414 -2.78596 
-0.628677 -0.355697 -0.430179 -0.109286 -0.828766 -0.450817 -0.569114 0.115701 -0.533351 -0.354271 -0.416945 0.166026 -0.668357 -0.594864 0.0430484 -0.803156 -0.785794 -0.7883 -0.0248508 -0.768001 -0.0470213 -0.553932 0.0628525 -0.735982 -0.0145283 -0.0368479 -0.286303 -0.334384 -0.169275 -0.211964 -0.45979 -0.0194972 
5.51716 5.74497 5.93343 5.94489 5.85592 5.66735 6.0263 5.88489 5.99637 5.48234 5.52811 5.71677 5.4019 6.30969 5.97752 6.21662 5.64991 5.89366 6.17863 5.93464 6.1167 5.83032 5.65486 5.6411 5.97345 5.64985 6.32674 5.40036 5.71008 6.24726 5.77937 6.22665 
-3.73889 -4.07277 -3.9765 -3.29704 -3.49569 -3.67873 -3.6671 -3.80901 -3.32548 -3.67121 -3.37998 -3.31097 -3.93806 -3.59191 -3.96377 -3.37889 -3.51255 -3.62684 -3.43637 -3.87679 -3.44991 -3.99518 -3.16205 -4.02107 -3.56273 -3.47786 -3.75117 -3.70935 -3.4344 -4.0852 -3.24683 -3.91015 
5.97732 5.70524 5.79175 5.88853 5.59629 5.73556 6.32187 5.68001 6.14919 5.89194 5.46952 6.0102 6.2108 5.6531 5.90672 5.88172 5.9292 5.71721 5.54462 6.13672 5.79267 5.93294 6.32708 5.81654 6.33592 6.28968 5.97204 5.42609 5.87529 5.95197 5.41079 5.41375 
-2.54687 -2.53056 -2.12176 -2.7343 -2.4908 -2.58243 -2.80948 -2.44101 -2.50538 -2.35286 -2.71013 -2.37117 -2.33037 -2.68355 -2.5015 -1.99991 -2.42207 -2.22371 -2.79146 -2.58894 -2.68147 -2.10696 -2.04048 -2.71988 -1.93678 -2.53804 -2.2943 -2.13621 -2.00707 -2.06358 -2.21022 -2.39165 
2.26961 2.74322 2.03789 2.02152 1.96633 2.56098 2.61406 1.98705 2.58217 2.27832 2.39153 1.95693 2.55729 2.34676 2.25419 2.02067 1.86125 2.64227 2.70416 2.76349 1.90123 1.89389 2.21725 2.37765 1.88882 2.70244 2.72409 2.21475 2.69024 2.13105 2.60843 2.06272 
6.55144 5.97861 5.70368 6.52635 5.69979 5.78188 5.64096 5.75376 5.8369 6.34203 5.87692 6.52771 6.01476 6.11855 5.90707 6.47906 5.72698 6.24073 5.99659 6.21214 6.36613 6.2472 5.75012 5.82378 6.47576 5.62491 6.05043 6.11484 5.63467 6.09733 5.76564 5.76832 
-4.29732 -3.78412 -4.1285 -3.98734 -3.82895 -4.19928 -3.77206 -3.98424 -4.0922 -3.96053 -3.69916 -4.19674 -4.06036 -3.90132 -3.83208 -3.60368 -3.65047 -3.84812 -3.51259 -3.39525 -3.7321 -3.5458 -3.73934 -4.31477 -4.13953 -3.59858 -3.79025 -3.8613 -3.71108 -3.40849 -3.825 -3.90719 
3.77899 3.69952 3.52671 3.11645 3.17756 3.94965 3.94359 3.87261 3.21863 3.72763 3.30797 3.54189 3.49733 3.43957 3.31946 3.68098 3.74443 3.12719 3.67518 3.25204 3.45992 3.68138 3.0202 3.85555 3.75325 3.44757 3.7893 3.27436 3.45178 3.05239 3.33085 3.35176 
-2.50179 -2.51397 -2.55311 -3.42509 -2.56495 -2.967 -3.45709 -2.9971 -3.28027 -3.38216 -2.78155 -3.24717 -3.12983 -3.37076 -3.1642 -3.17428 -2.65247 -3.25497 -3.26291 -2.50256 -3.24427 -2.59307 -2.54233 -2.99931 -2.54674 -3.03815 -2.92265 -3.41003 -3.16011 -2.80028 -3.09231 -2.58248 
3.48123 3.05442 2.63956 2.75829 3.21851 2.64262 3.51835 3.21088 3.31533 3.28099 2.65275 2.97204 2.71272 3.03218 2.96132 3.45489 2.6449 2.97774 3.11768 3.38528 3.47297 3.03364 2.8318 2.78992 3.21088 3.54533 2.6331 2.7898 2.69876 2.70287 3.34988 3.33275 
0.391943 0.248818 0.345716 0.692922 0.296824 0.285734 0.207387 0.478784 -0.0135313 0.734671 0.465936 0.43114 0.213532 -0.0555366 0.722799 0.383632 0.104602 0.210808 0.562577 0.571702 0.498192 -0.16432 0.115 0.0800911 0.300486 0.233405 0.272396 0.242084 0.791039 0.0858792 -0.0950933 0.272426 
3.05589 2.47931 3.2872 3.21304 3.11695 2.54943 2.79868 3.05963 2.83355 2.5124 2.97672 3.14452 3.24276 2.67849 3.0701 2.67751 2.41094 3.35734 3.22007 2.52245 3.33595 3.14446 3.23368 3.02593 3.17342 2.55711 3.26484 3.10455 2.58083 2.94705 2.69997 2.70462 
-0.683333 -0.48518 -0.593206 -0.252406 -0.374036 -1.13065 -0.731318 -0.654457 -1.00252 -0.491564 -0.279864 -0.253783 -0.830755 -0.566729 -0.317102 -0.460455 -0.782648 -0.286375 -0.515949 -0.686902 -0.972361 -0.825266 -1.12388 -1.07998 -0.711357 -0.554672 -0.887112 -0.835036 -1.0063 -0.256295 -0.368833 -0.770016 
-3.68011 -3.15711 -3.78376 -3.29631 -3.40014 -3.1557 -3.3595 -2.85106 -3.1041 -3.64865 -3.17338 -3.16479 -2.8551 -3.40011 -3.66006 -3.36716 -3.4964 -3.71779 -3.67084 -3.02965 -3.60202 -3.69074 -3.26723 -3.55331 -3.5945 -3.47361 -3.13754 -2.87892 -3.22431 -2.85885 -3.32485 -3.12302 
-0.619686 -0.531644 -0.367415 0.247193 -0.544839 0.195467 -0.127419 -0.381266 0.168404 0.169296 -0.185405 -0.229421 0.058192 -0.395175 -0.309575 -0.113306 -0.581994 -0.439222 0.127851 -0.669172 -0.0321362 -0.00772777 -0.503519 -0.357881 -0.539978 -0.0445905 0.0256089 -0.477749 -0.628702 -0.163147 -0.303162 -0.00168943 
4.12178 4.07516 4.14657 3.46816 3.43276 3.73054 3.95746 4.26912 3.6877 3.77592 3.76319 3.85032 3.51225 4.05523 3.47716 3.66587 3.41079 3.77187 3.80535 4.11904 4.04031 3.83264 3.85552 3.93749 3.69425 3.56561 3.61096 3.78337 3.99351 3.68439 3.6284 4.3191 
-0.595957 -1.03634 -1.27217 -0.652966 -1.50966 -1.57094 -1.11898 -0.971546 -1.38105 -1.38027 -0.756598 -0.761417 -1.09494 -1.3318 -0.596079 -1.30091 -0.84735 -1.27557 -1.2033 -1.04911 -1.33137 -1.43729 -1.50264 -0.874168 -1.42544 -1.19469 -0.849766 -0.789804 -1.39929 -1.32586 -0.616061 -1.01168 
-0.572111 -0.82675 -1.0529 -0.170409 -0.536226 -0.518852 -0.257513 -0.721762 -0.542338 -0.141162 -0.56937 -0.918713 -0.516944 -0.60717 -0.70546 -0.800409 -0.303026 -1.02798 -0.872611 -0.585165 -0.246591 -0.861191 -0.77777 -0.508378 -1.06248 -0.138496 -0.224322 -0.908094 -0.981753 -0.973054 -1.0102 -0.409773 
-3.4096 -3.72228 -3.2095 -3.33664 -3.15129 -3.86779 -3.44397 -3.29828 -3.12026 -3.78755 -3.07724 -3.68321 -3.8393 -3.76561 -3.11057 -3.32975 -3.74144 -3.40005 -3.75558 -3.10735 -3.12911 -3.43681 -3.25537 -3.38701 -3.22744 -3.53937 -2.96994 -3.4955 -3.27272 -3.00786 -3.61048 -2.97986 
2.60535 2.56169 1.87368 2.55413 2.00021 1.82973 2.42225 2.45492 1.91719 2.09701 1.92845 1.8586 2.66749 2.38796 2.03911 2.09237 2.3744 2.42515 2.18154 1.75803 2.44294 2.06371 1.89269 2.52561 2.43632 2.04605 2.07733 2.49322 2.07477 2.0775 2.61272 2.6526 
2.5144 3.01544 2.28998 3.14551 3.01343 3.18186 2.50753 3.1169 2.83841 2.61651 3.13667 2.51071 2.58804 2.26289 2.59334 2.84617 2.91432 2.93484 2.53587 2.24203 2.68355 3.01785 2.4856 2.70835 2.56901 2.72154 2.57552 3.03922 3.16727 2.89993 2.76344 2.27573 
6.73518 6.38535 5.87575 6.10961 5.98713 6.14734 6.12398 6.79692 6.41184 6.66465 5.99957 6.17426 6.36641 6.51378 6.61842 5.89066 6.14287 6.39965 6.55542 6.6864 6.71511 6.13292 6.57697 6.16047 6.22119 6.41187 5.90567 6.14941 6.07553 6.42427 6.07986 6.20015 
0.50369 0.581725 0.429052 0.510709 0.210926 0.264689 0.105403 0.524534 0.121798 0.287487 -0.0982793 0.0951985 0.752751 0.484095 0.6915 0.0241327 0.0838427 0.239016 0.528989 0.817633 -0.0529693 0.725742 0.716007 0.784826 0.217925 0.162183 0.421822 0.2188 0.0885186 0.231988 0.325269 0.662508 
1.37747 2.23481 1.41322 1.41671 1.90488 1.35956 1.43842 1.78119 1.84856 2.25035 1.9233 1.55794 1.34522 1.72706 1.48021 1.61892 2.16523 1.62448 1.33469 1.31883 1.66338 1.37314 1.54731 1.97456 1.76981 1.7794 2.13502 1.66805 1.42433 2.15567 1.40718 1.37477 
-2.32383 -1.88407 -1.78717 -1.77281 -2.50976 -2.17439 -2.45277 -2.06616 -1.8396 -2.52274 -1.95428 -1.86397 -2.03209 -2.5658 -1.85838 -2.17988 -2.46545 -2.18648 -2.15662 -1.76694 -2.64083 -1.76696 -1.79592 -2.02259 -2.20941 -1.86272 -1.98703 -1.78111 -2.51839 -2.35011 -2.31596 -2.1 
1.78289 2.46832 1.64659 2.14224 1.94105 2.06662 1.6842 1.57792 1.79578 2.2586 1.67621 2.22393 2.09498 1.68882 1.72925 2.04678 2.37339 1.5456 2.2925 2.4042 2.08617 1.50727 1.71904 2.29697 2.30533 1.65085 2.40226 2.40611 2.24132 2.08489 2.36365 2.05812 
-0.579366 -0.866834 -1.0144 -0.853944 -0.892718 -0.402362 -0.773439 -0.31105 -0.306458 -0.354017 -0.313552 -0.989798 -1.09361 -0.151145 -0.737935 -0.905215 -0.762613 -0.763433 -0.587583 -0.545646 -0.242972 -0.536285 -0.914751 -0.241273 -0.394933 -0.674829 -0.882505 -0.452826 -0.476748 -0.951572 -0.306398 -0.980976 
2.27464 2.3999 2.7736 2.94829 2.28616 2.88599 2.22458 2.41419 2.86979 3.06119 2.26602 2.3983 3.11837 3.10562 2.54236 2.91967 2.64836 2.65152 2.24027 2.745 2.7951 2.31195 3.07684 2.44232 3.03913 2.57563 2.29536 2.71202 2.65128 2.99108 2.7164 2.14054 
3.65765 3.53313 3.46998 3.48799 2.91196 2.83793 3.1306 3.60142 2.91988 2.88463 3.41929 3.51442 3.61755 3.118 2.76135 3.2229 2.76181 3.58365 3.64311 2.84323 2.67873 2.73493 2.87263 3.0689 3.52688 2.82665 2.92018 3.14782 3.03107 2.87364 2.78904 3.49163 
3.33995 3.6118 3.18512 3.74911 3.35568 3.68469 3.58939 3.69813 2.89108 3.31952 2.88744 3.54859 3.1706 2.88499 3.27462 3.25014 3.15171 3.62212 3.20742 3.37447 2.85794 3.73555 3.79533 2.97697 3.44353 3.29544 3.66461 3.18533 3.0275 2.94293 3.47687 3.73202 
-0.286365 -0.272863 -1.05681 -0.995169 -0.859038 -0.800777 -0.368007 -1.07862 -0.524947 -0.398749 -0.721367 -1.03153 -0.298246 -1.0683 -1.13628 -0.967429 -0.939775 -0.615908 -0.604706 -0.745466 -1.05887 -1.13909 -0.407759 -0.73821 -1.17421 -0.761904 -0.892264 -0.573051 -0.846752 -1.01075 -0.254114 -0.72209 
1.23164 0.420242 1.01776 1.16123 0.324409 1.0367 1.0879 0.60838 0.422604 0.396932 0.507256 0.86968 0.703711 0.664946 1.03602 0.751597 0.748694 0.890373 0.961813 1.03871 1.03373 0.511777 0.797557 1.17258 0.695306 0.317544 1.0883 1.12861 0.459654 0.695756 0.382283 0.700545 
-1.84287 -1.662 -1.19278 -1.38414 -1.75492 -1.42764 -1.65679 -1.91296 -1.7598 -1.50903 -1.48146 -1.16371 -1.07005 -1.77735 -1.05507 -1.46124 -1.69521 -1.64025 -1.27174 -1.25353 -1.38417 -1.17486 -1.51642 -1.06822 -1.04682 -1.65003 -1.44832 -0.99441 -1.71463 -1.54622 -1.35919 -1.48177 
-2.94498 -3.07153 -2.75422 -3.32458 -2.86367 -2.64303 -3.13939 -2.87937 -3.15967 -2.54941 -3.10843 -2.6247 -2.98319 -3.07054 -3.21989 -3.01777 -2.85748 -3.27919 -2.90256 -2.67207 -3.04678 -2.85128 -3.16462 -2.82574 -3.18764 -3.07029 -3.0138 -3.27781 -3.1469 -3.14038 -3.03413 -3.28146 
1.72426 1.1609 1.74365 1.47315 1.89189 1.06446 1.05903 1.80015 1.28073 1.41346 1.60704 1.84952 1.27075 1.18057 1.66418 0.994054 1.88201 1.45286 1.92031 1.59217 1.02771 1.88301 0.968671 1.88722 1.65178 1.17142 1.3475 1.73047 1.04221 1.56432 1.68735 1.57935 
0.425065 0.858297 0.411101 0.274292 0.383607 0.641677 0.571324 0.810872 0.113662 0.305538 0.398575 0.680619 -0.027043 0.718401 -0.0169075 0.0587325 0.610457 0.917871 0.775348 0.405292 0.775104 0.783405 0.214081 0.647811 0.367032 0.0455761 0.310497 0.639937 0.709581 0.593824 0.382718 0.0168065 
0.718304 0.536483 0.928913 0.239291 0.278347 0.274668 0.0937508 0.256259 0.188254 0.780535 0.537728 0.230617 0.218268 0.473053 0.145407 0.128964 0.712475 0.123396 0.782238 0.587379 0.973521 0.777088 0.999945 0.452866 0.121869 0.214104 0.0965832 0.953192 0.537243 0.121642 0.671854 0.34814 
-1.1254 -0.236843 -1.08477 -1.10667 -0.532841 -0.289813 -0.214853 -0.903374 -0.924776 -0.456588 -0.751451 -0.782458 -0.689677 -1.04583 -0.956911 -1.01671 -0.717858 -0.805584 -0.979439 -0.724415 -0.455309 -0.626618 -0.865966 -0.856275 -1.16677 -0.579957 -1.07879 -0.513908 -0.612882 -1.04924 -0.379734 -0.275091 
0.901811 0.283673 -0.0253557 0.0602 0.0629402 0.327657 0.296221 0.127146 0.0473794 0.466779 0.775547 0.704515 0.787687 0.265667 0.0139291 0.220684 0.160693 0.332155 0.582803 -0.0241949 0.749256 0.724761 -0.0172024 0.426291 0.0720646 0.515414 -0.10077 0.489116 0.387195 0.431306 0.841179 0.186312 
-0.577645 -0.234231 -0.332434 -1.06184 -0.651413 -1.01565 -0.379683 -1.04931 -0.921418 -0.641386 -0.811299 -1.00701 -0.709705 -0.936875 -1.13333 -0.737465 -0.177786 -0.240555 -0.602348 -0.505156 -1.12845 -0.568469 -0.691899 -0.257683 -0.835945 -0.66109 -0.83059 -0.614175 -0.234776 -0.525393 -0.77185 -0.500623 
2.37623 2.59633 1.99098 2.47166 2.31317 2.67557 2.81596 2.47377 2.32288 2.71543 2.14147 2.3121 2.28422 2.10461 2.28933 2.85921 2.02866 2.37362 1.97434 2.45489 2.02327 2.305 2.79393 1.99122 2.58269 2.40948 2.24544 2.54763 2.56629 2.13149 2.78135 2.83557 
-0.947357 -0.142009 -0.449903 -0.270123 -0.137476 -0.298671 -0.935099 -0.785183 -0.616137 -0.213082 -0.145557 -0.125263 -0.915745 -0.5912 -0.766158 -0.663723 -0.171788 -0.234379 -0.624387 -0.469442 -0.814639 -0.62789 -0.640652 -0.538431 -0.726923 -1.00313 -0.645323 -0.650613 -0.337796 -0.337826 -0.3888 -0.128152 
3.345 3.69145 2.93985 3.00137 3.06821 3.82638 3.87817 3.35873 3.45424 3.82477 3.50728 3.192 3.12303 3.51575 2.95793 3.69269 3.0486 3.59444 3.60937 3.64574 3.47121 3.16469 3.22529 3.3131 3.7355 3.33191 3.57154 3.37961 3.09356 3.89437 3.19073 3.06614 
-1.13708 -0.777097 -0.457933 -1.17649 -0.928004 -0.644694 -0.746277 -1.06264 -0.588237 -0.900957 -0.894484 -1.01972 -0.986835 -0.510872 -0.859526 -1.20297 -0.961386 -0.504834 -0.435891 -0.995255 -0.840577 -1.22819 -0.932981 -0.577575 -0.804655 -0.280089 -1.08409 -0.454877 -0.978843 -0.847613 -0.608642 -0.421099 
-1.241 -1.40714 -1.28357 -1.01328 -0.791745 -0.910723 -1.50241 -1.33402 -1.25878 -1.12556 -1.43927 -0.750295 -1.52209 -1.10144 -1.15357 -0.83497 -1.15798 -0.847201 -0.983601 -0.952584 -1.37546 -1.28009 -1.08947 -1.56052 -1.55147 -1.51802 -0.787937 -0.99008 -1.24203 -0.749044 -1.51215 -1.57598 
0.228808 0.284041 -0.0616985 -0.08808 0.235382 -0.347189 -0.349573 0.409618 -0.12504 -0.234081 -0.0127532 0.598387 -0.301335 0.118637 -0.167774 0.492106 0.451916 0.535885 -0.0990568 -0.200274 -0.283469 0.459347 0.511958 0.070044 0.273687 0.200878 0.563412 0.482818 0.063587 -0.16109 0.442258 0.61975 
-0.238435 -0.504221 -0.625128 -1.00627 -0.220642 -1.05562 -1.12067 -0.537607 -0.361951 -0.866252 -0.850876 -0.430049 -0.284408 -0.22019 -1.00509 -1.09513 -0.804018 -0.636439 -1.1445 -0.692932 -0.844935 -0.414488 -0.320609 -0.460339 -1.18028 -0.74197 -0.382088 -0.344979 -0.433244 -1.1403 -0.677438 -0.329335 
-0.501406 -0.577826 -1.04304 -1.22504 -1.40391 -0.746486 -1.3803 -1.12483 -0.580474 -0.746517 -1.42955 -1.00683 -1.31431 -0.997875 -0.495442 -0.770484 -0.98964 -0.656448 -0.782624 -1.2288 -1.28531 -0.763952 -1.34095 -1.22787 -1.24184 -1.04035 -1.05746 -0.503029 -1.02007 -1.40388 -1.44708 -1.1276 
-0.555745 -0.473823 -0.160436 -0.569802 -0.218116 -0.245833 -0.914902 -0.281482 -0.468944 -0.246106 -0.978878 -0.814976 -0.858417 -0.352967 -0.710199 -0.585093 -0.237843 -0.529385 -0.353057 -1.00487 -0.367935 -0.704654 -0.717901 -0.275654 -0.214714 -1.04384 -0.789455 -0.534858 -0.56689 -0.733225 -0.771747 -0.513926 
-0.50864 -0.474993 -0.702812 -0.425825 -0.127933 -0.675603 0.0183035 0.0697647 -0.831685 -0.510367 -0.650727 -0.0474486 -0.00304132 -0.634661 -0.17887 -0.671271 -0.813073 -0.0455378 -0.167607 -0.766014 -0.503493 -0.602442 0.0201059 -0.620494 -0.584062 0.0682767 -0.769746 -0.480969 -0.575365 -0.259328 0.037238 -0.205045 
0.460439 0.423752 0.730553 0.387642 0.804142 0.607689 0.910329 0.0281967 0.411025 0.587166 0.583588 0.709525 0.634448 0.568928 0.290896 0.917365 0.909039 0.342912 0.668136 0.29754 0.298457 -0.0483382 0.0310913 0.728605 0.0316452 0.499978 -0.0473422 0.165265 0.885252 0.737801 0.378556 0.126102 
2.66296 3.10582 3.30542 3.16975 3.45465 2.65006 3.3812 3.37977 2.88518 3.05333 3.49025 2.89677 3.34371 3.05706 3.11872 2.70562 3.04441 3.0213 2.74754 3.15104 3.06188 2.84794 2.74729 3.38832 2.6397 3.24485 3.19055 3.07072 2.69927 3.28019 2.86281 3.45548 
-0.834309 -1.41786 -0.76853 -1.40635 -0.949884 -0.868077 -1.31287 -1.30661 -1.06732 -0.951674 -1.13339 -0.577796 -1.24863 -0.724514 -0.778635 -0.82601 -0.465373 -0.4837 -1.27561 -0.907323 -0.972305 -0.552805 -0.987839 -1.10442 -1.14526 -0.513567 -1.39895 -0.782663 -0.92561 -0.90033 -1.38811 -1.41906 
-0.826429 -0.619502 -0.946822 -0.895461 -0.604099 -0.272834 -0.115676 -0.142133 -0.940321 -0.771805 -0.137856 -1.08387 -0.915365 -0.355241 -0.593705 -0.99183 -0.613528 -0.149773 -0.385991 -0.791211 -0.896161 -0.780752 -0.36033 -0.984114 -0.474942 -0.131409 -0.668562 -0.616403 -0.196869 -0.122891 -0.355181 -0.398818 
-0.937111 -0.439349 -0.243838 -0.0786655 -0.0338917 -0.809247 0.00539861 -0.915832 -0.0908529 -0.220014 -0.901156 -0.219888 -0.761266 -0.324902 -0.585326 -0.793422 -0.195512 -0.351663 -0.141154 -0.628479 -0.160369 -0.341399 -0.651807 -0.199736 -0.353207 -0.347636 -0.0925159 -0.850157 -0.606307 -0.59354 -0.099033 -0.0899793 
2.51531 2.89023 2.90676 2.2481 3.08906 2.40882 3.10458 2.94275 2.48793 2.61569 2.68365 2.42754 2.92682 3.02783 3.0337 2.20227 2.32184 3.15127 2.4653 2.39474 2.63793 2.45863 2.8877 2.77716 2.51961 2.71066 2.46087 3.01427 3.1014 2.58428 2.38579 2.34135 
-0.502692 -0.239248 -0.439088 -0.864997 -0.190271 -0.53803 -0.723426 -0.52695 0.0104727 -0.734783 -0.678657 -0.894421 -0.356349 -0.47194 -0.898499 -0.184245 -0.299157 -0.700746 -0.0687772 -0.0205461 -0.368977 -0.557477 -0.922143 -0.176186 -0.287994 -0.398695 -0.408666 -0.597125 0.00476025 -0.483612 -0.888648 -0.8922 
2.12189 2.12854 2.1968 2.40843 1.89097 2.42802 2.48319 1.95815 1.92452 2.76096 2.06126 2.82455 2.52385 2.03065 2.29644 2.18932 1.91366 2.50236 2.22632 2.64251 2.62575 2.45404 2.57183 2.15207 1.98051 2.4051 2.33678 2.46698 2.8329 2.31492 1.98808 2.68197 
1.14501 0.925134 1.18762 1.2329 1.15737 0.949519 1.16428 1.44392 1.22548 1.24569 0.893629 0.963891 1.8672 0.893961 1.77795 1.17839 1.50817 1.27819 1.14498 1.13392 1.59029 0.906461 1.51665 1.68448 1.66303 1.2364 1.63036 1.69999 1.45407 1.62623 1.3421 1.38997 
-1.68373 -1.53293 -1.85857 -1.68379 -1.99445 -1.52742 -1.58288 -1.8685 -2.0104 -1.86446 -1.97335 -1.59883 -1.56576 -1.63902 -1.61645 -2.19532 -1.90472 -1.56867 -2.22342 -2.16748 -2.04419 -1.98509 -1.29394 -1.50235 -1.84212 -1.45699 -1.37853 -1.84743 -1.79555 -2.04598 -1.75053 -1.41896 
-1.1427 -1.06749 -0.625934 -0.520794 -0.266312 -1.15481 -0.409907 -1.22278 -0.315236 -0.288633 -0.622538 -0.822902 -1.02456 -0.987365 -0.814486 -0.418808 -0.313632 -0.363966 -1.15921 -0.848108 -0.899116 -0.636252 -0.782789 -0.749368 -0.724106 -0.361067 -0.792062 -1.01786 -0.598716 -0.891287 -1.02797 -0.751479 
-0.0288247 -0.153825 0.511862 0.214959 0.236319 -0.25486 -0.183626 0.276471 -0.124623 0.711677 0.162891 -0.0548782 -0.259395 0.320085 0.0211131 0.335866 0.389861 -0.0235771 0.439167 0.268383 -0.0240992 0.459205 -0.15732 -0.257945 -0.122693 0.245216 0.538138 -0.0113346 -0.102257 -0.144044 0.563224 0.518637 
0.262222 0.489574 0.67359 0.917158 0.138034 0.114117 0.268551 1.00446 0.38978 0.450896 0.136904 0.339563 0.826746 0.942331 0.821431 0.185319 0.541358 0.217679 0.172682 0.205593 0.342217 0.941821 0.491158 0.221135 0.144805 0.728605 0.302002 0.954853 0.360058 0.133199 0.111202 0.926508 
2.14906 2.36074 2.20917 1.53214 1.52733 1.62612 1.781 2.33115 1.96279 1.6306 2.2174 1.47461 1.70763 2.32256 2.12557 2.34877 1.44956 2.37883 1.82366 1.55805 2.31654 2.27745 1.68816 1.95952 2.132 1.77897 2.4007 2.12111 1.83272 1.63553 2.40933 2.09356 
2.60811 2.88295 3.18419 3.1244 2.47151 2.34708 2.44863 3.28053 2.8446 2.77171 3.08229 2.61775 2.86875 2.30612 2.76476 2.667 2.88992 2.40672 2.90352 3.02303 3.06732 2.31434 3.22516 2.85411 2.43184 2.94124 2.46718 2.91152 2.3909 2.45363 2.48328 3.23569 
1.32211 1.56007 1.65719 2.13146 1.27279 1.9342 1.83725 1.72317 2.02355 1.52745 1.3894 1.39651 2.03578 1.28355 2.03217 1.8166 1.39627 1.30013 1.92936 1.686 1.97561 1.45307 1.39704 1.67603 1.33538 1.88721 2.07911 2.08433 1.31942 1.27706 1.81296 1.44231 
2.5008 2.78578 2.43215 2.13228 2.2601 2.46707 2.7886 2.15697 2.01346 2.42421 2.54723 2.57052 1.96594 2.1087 2.49861 2.13378 2.01076 2.01159 2.16922 2.73633 2.43571 2.54444 2.72429 1.83537 2.67803 2.16014 2.6373 2.55052 1.96557 2.20239 2.18066 2.41738 
3.03363 3.02951 3.26431 2.96403 2.92475 2.55873 2.58108 2.88953 2.93226 3.05372 2.91497 3.21146 2.50478 3.12569 3.15215 2.73847 2.40174 2.45915 2.81268 2.70311 3.02644 2.9686 3.19074 2.47863 2.96725 2.35766 2.43574 2.51263 2.75457 2.85611 2.77201 2.69376 
-2.5002 -2.20644 -2.16862 -2.17266 -2.05863 -1.65265 -2.11139 -1.96572 -2.30456 -1.95765 -2.23156 -2.30479 -2.1958 -1.73453 -2.56295 -2.40623 -2.00953 -2.28273 -2.01296 -1.63392 -2.47882 -2.33505 -1.82869 -2.32247 -1.64427 -1.87682 -2.29844 -2.50924 -2.56386 -2.54128 -1.7975 -2.39456 
2.50929 2.05943 2.1558 2.61134 2.60914 2.05328 2.27724 1.9883 2.21469 2.5495 2.72144 2.09307 2.53466 2.47654 2.56103 2.8157 2.30236 2.25503 2.20901 2.33658 2.22524 2.51239 1.98082 2.62038 2.19199 2.6429 2.01201 2.67483 2.20213 2.1197 2.00982 2.66857 
-1.83164 -2.40529 -2.09261 -1.76783 -1.92866 -1.99984 -1.59047 -2.45473 -2.13353 -1.59331 -1.94356 -2.44256 -1.72036 -2.11898 -2.0011 -1.87781 -1.82926 -1.65316 -2.42058 -1.89916 -1.57636 -2.26282 -2.08089 -1.9196 -1.92388 -2.21945 -2.39693 -1.63605 -1.73732 -1.68646 -2.26012 -2.00912 
-3.42286 -3.48574 -2.97115 -3.70207 -2.946 -3.42874 -3.20034 -3.28662 -2.99821 -3.04705 -3.65245 -3.20562 -2.826 -3.43867 -3.05766 -3.63676 -3.44093 -3.30112 -3.53901 -3.0819 -3.07925 -3.62288 -2.79445 -3.02829 -3.23471 -3.17782 -3.06046 -3.51227 -3.66485 -3.58767 -3.19741 -3.20032 
-0.899878 -0.286155 -0.946364 -0.730737 -0.935635 -0.76505 -1.06388 -1.0093 -0.657301 -0.859615 -0.327649 -0.419272 -0.857994 -0.205063 -0.353917 -0.223643 -0.335396 -0.36104 -1.13916 -1.08158 -0.721888 -0.267472 -0.904787 -0.367126 -0.746866 -0.191762 -0.850452 -0.145134 -1.13321 -1.11493 -0.302097 -0.248752 
3.0107 2.24602 2.58682 3.16426 2.96462 2.24686 2.98236 2.80731 2.41446 3.17412 2.26372 3.06037 2.45229 2.55553 2.94924 2.61946 2.57272 2.75348 2.85871 2.75014 2.44738 2.78902 2.40168 2.36825 2.42076 2.91912 2.37614 2.78739 2.76663 3.03404 2.45895 2.47496 
4.26253 4.25596 5.14803 4.29699 4.79826 4.38671 4.49473 4.39037 4.44346 4.34132 4.28127 4.73859 4.56748 4.4152 5.14945 4.94771 5.03913 4.69896 4.44068 4.34613 4.55093 5.09632 4.39942 4.32799 4.80174 4.46907 4.70662 4.92819 5.03344 4.65045 4.59116 4.4372 
4.53991 4.04945 4.41808 4.35055 4.93439 4.1423 4.58621 4.8736 4.45761 4.07586 4.87859 4.55065 4.28281 4.57561 4.17324 4.7827 4.68133 4.32716 4.64361 4.07892 4.06542 4.92879 4.88678 4.53977 4.78697 4.87823 4.34198 4.38301 4.10452 4.25941 4.17795 4.98413 
2.5033 2.13404 2.0542 2.5552 2.12815 2.65929 2.03721 2.48308 2.36026 2.02553 2.46001 1.917 2.67342 2.05629 2.35888 2.10675 1.92528 2.64255 2.66334 2.73024 2.67313 2.26126 2.37383 2.10774 2.59047 1.93027 2.49705 2.62788 2.54451 2.05805 1.83898 2.54786 
-1.50325 -1.77634 -1.25934 -1.4677 -1.74194 -1.13737 -1.99728 -1.79395 -1.21823 -1.98764 -1.71256 -1.45339 -1.80132 -1.63181 -1.25993 -1.30475 -1.13675 -1.10572 -1.32385 -1.34548 -1.4454 -1.3652 -1.2679 -1.12558 -1.8153 -1.67912 -1.51158 -1.34751 -1.56432 -1.11798 -1.27743 -1.67087 
-2.21065 -2.67796 -2.5469 -2.59047 -2.21802 -2.63171 -2.52632 -1.89284 -2.66807 -1.84373 -2.14328 -2.14862 -2.37815 -2.04408 -2.05754 -2.46509 -2.28519 -2.43251 -2.01231 -2.42657 -1.90656 -2.49059 -2.38219 -2.11513 -2.53518 -2.71695 -2.25641 -2.1062 -1.90417 -2.524 -2.26119 -2.37416 
5.14617 5.18715 5.72048 5.38269 5.06169 5.10382 5.52057 4.94716 4.99258 5.45319 5.40019 5.25437 5.70484 5.5735 5.83528 5.07527 5.01394 4.96723 5.71183 5.34582 5.79337 5.57676 5.81887 5.67889 5.75969 5.69527 5.42666 4.96738 4.96399 5.74868 5.89504 5.31467 
3.64283 3.40314 3.82581 3.70907 3.28213 3.30991 3.42796 3.76787 4.14886 3.52358 3.71649 4.11706 4.10531 4.13759 3.38156 3.2991 3.66806 4.12802 3.49217 3.84802 3.9147 3.85939 3.3339 3.31468 3.85418 3.33789 3.31849 3.35822 4.12113 4.00157 3.40277 3.77289 
3.40198 2.8809 3.19522 3.21051 3.17382 3.06316 3.14301 2.91898 3.27967 3.42917 2.87582 3.54303 2.97193 3.54544 3.25551 3.30789 3.63942 3.57886 3.22808 3.55529 3.24556 3.18073 2.79512 2.93026 3.42853 3.22118 3.41447 3.27729 3.39569 3.30637 3.12308 3.49049 
-3.71319 -3.32237 -3.68862 -3.88387 -3.28226 -3.90786 -3.82167 -3.45619 -3.53927 -3.62615 -3.05624 -3.10953 -3.35209 -3.77627 -3.29901 -3.8995 -3.38792 -3.18046 -3.13982 -3.66743 -3.1582 -3.96885 -3.57855 -3.39909 -3.03598 -3.4254 -3.23927 -3.71232 -3.31497 -3.59194 -3.49611 -3.16191 
4.92943 5.01023 4.68298 5.03627 5.16563 4.75726 5.52713 4.72648 5.62497 4.70213 5.04721 5.01163 4.83293 5.29936 5.45651 5.52887 5.0519 5.5892 5.34583 5.42628 5.04899 5.51701 4.93716 5.27875 4.74854 4.7625 5.40559 5.32875 5.25223 4.70932 5.48091 5.10231 
-2.79333 -2.32273 -2.73603 -2.53277 -2.49598 -2.48298 -2.75306 -2.16111 -2.04128 -2.66602 -2.25924 -2.43683 -2.11735 -1.98623 -2.71862 -2.12505 -2.34825 -2.74503 -2.86115 -2.02386 -2.09895 -2.08292 -1.9847 -2.70255 -2.77525 -2.291 -2.1097 -2.74449 -1.93967 -2.33012 -2.00357 -2.10577 
-2.69586 -1.82104 -2.37558 -2.18512 -2.46918 -1.96057 -2.644 -2.19067 -2.06677 -2.08492 -1.82323 -1.85087 -1.94766 -2.17215 -2.09362 -2.18644 -2.54966 -2.22467 -1.8335 -1.95232 -2.6601 -2.33043 -2.48781 -2.61275 -1.81443 -1.90595 -2.64998 -2.22582 -2.05946 -1.99279 -1.94404 -2.65396 
-2.51727 -2.44275 -2.34618 -1.77964 -2.37561 -2.00189 -2.24594 -2.30801 -1.89894 -2.39769 -2.10684 -1.84679 -1.85154 -1.92765 -1.98216 -1.78533 -2.48262 -2.31055 -2.12171 -2.5467 -2.25528 -1.88808 -2.06958 -2.48707 -2.37667 -1.93795 -1.87041 -1.62307 -1.7613 -1.60496 -2.47619 -2.33481 
3.68855 3.72144 3.14606 3.1544 3.3441 3.54813 3.79495 3.33793 3.72156 3.4694 3.24712 3.18577 3.14588 3.73308 3.67336 3.82086 3.62769 3.49199 3.46126 3.17419 3.8032 3.26206 3.37643 3.43598 3.98779 3.76187 3.70394 3.8739 3.53865 4.02737 3.57104 3.97323 
3.06326 2.29719 2.33921 2.78252 2.93052 2.88297 2.72422 2.93188 3.16347 2.254 3.06969 2.63016 2.64698 2.74624 2.81049 2.57561 2.75293 2.28287 2.60835 3.13296 2.82081 3.04337 2.7619 3.23434 3.0692 2.87677 2.78851 2.7725 3.01988 3.12208 2.43722 2.66126 
-2.35919 -2.85853 -2.36512 -2.0981 -2.93898 -2.93476 -2.53257 -2.30226 -2.22433 -2.08148 -2.60476 -2.50495 -2.25248 -2.104 -2.88452 -2.46142 -2.25091 -2.56446 -2.8016 -2.25277 -2.46557 -2.71315 -2.27341 -2.96403 -2.4756 -2.55473 -2.62832 -2.77856 -2.6339 -2.26663 -3.02046 -2.83653 
-0.728242 -0.732994 -0.504491 -1.21884 -1.33831 -1.2367 -0.514586 -1.19337 -1.26816 -1.27998 -0.742799 -0.82737 -1.14583 -1.29206 -1.23499 -1.30715 -0.687595 -0.506112 -0.890426 -1.11057 -1.01969 -0.578294 -0.537728 -1.16109 -1.17786 -1.34317 -0.56021 -1.25458 -0.503884 -1.37622 -0.447556 -1.18172 
-0.91368 -1.55959 -1.06114 -1.52873 -1.49842 -1.14535 -1.64575 -1.21891 -1.58859 -1.58481 -1.69643 -1.01217 -0.929515 -1.27574 -0.9994 -1.59627 -1.58737 -1.27006 -1.16458 -1.7033 -1.01979 -1.84952 -1.78371 -1.86182 -1.29906 -1.64229 -1.39967 -1.19616 -1.77162 -1.36787 -1.30501 -1.57787 
-2.13492 -1.72189 -2.18248 -1.6694 -1.58169 -2.27268 -2.12425 -2.05469 -2.14061 -2.15123 -2.07244 -2.46937 -2.24565 -1.91664 -2.50058 -2.20473 -2.40385 -1.7126 -2.31521 -2.05549 -2.47873 -2.47939 -2.48578 -1.93391 -2.44569 -1.63485 -1.80141 -1.90175 -1.69162 -1.85332 -1.86764 -1.55141 
-2.82337 -3.19851 -2.92143 -2.72859 -2.31398 -2.58567 -2.41966 -2.41225 -3.00205 -2.89913 -2.25316 -2.2516 -2.54213 -2.33994 -2.62007 -3.01786 -2.70188 -2.33659 -2.95385 -2.62806 -3.16652 -2.60181 -2.44598 -3.10543 -2.44171 -3.16129 -3.15827 -3.15088 -2.93882 -2.67263 -2.64859 -2.53607 
2.38479 2.96915 2.6953 2.44849 2.74849 2.66663 2.46462 2.86629 2.44526 2.3367 2.34461 3.14808 3.11431 2.90426 2.41701 2.92732 2.72817 2.40717 2.36076 2.40437 2.48996 2.29198 3.07033 2.58309 2.74351 2.88451 2.96762 2.53534 2.86599 2.85407 3.21741 2.78478 
-1.62085 -1.2255 -1.57535 -1.74921 -1.9071 -1.42359 -1.24319 -1.42559 -1.61005 -1.3574 -1.96806 -1.75284 -1.38439 -1.3323 -1.42439 -1.7162 -1.416 -2.02207 -1.18543 -1.94149 -1.9153 -1.93769 -1.9896 -1.14257 -1.42527 -1.35343 -1.09284 -1.11311 -1.74789 -1.13294 -2.04047 -1.55989 
3.7056 3.23277 3.91828 3.33103 3.37348 3.80991 3.18328 3.33191 3.66404 3.16846 3.07296 3.89413 3.0573 3.3914 3.28248 3.45256 3.25649 3.86425 3.55992 3.61795 3.33314 3.11941 3.73342 3.24995 3.23829 3.27548 3.9123 3.939 3.85164 3.09168 3.14402 3.24732 
-2.31132 -1.58983 -2.14505 -2.25546 -1.49585 -2.33918 -2.11217 -2.3791 -2.13171 -1.87255 -2.24774 -1.6693 -2.24751 -1.91835 -1.58826 -2.24548 -2.13824 -2.2448 -2.31091 -2.20676 -1.76869 -1.49985 -1.8542 -1.93183 -2.34752 -1.99158 -1.85203 -1.98416 -2.38766 -2.21535 -2.08331 -2.10833 
5.0686 5.35607 5.60667 5.60195 5.43828 5.71443 5.30214 5.4823 5.06694 5.67958 5.04602 4.93731 5.00637 5.18178 5.16984 5.06752 5.01804 5.09863 5.02558 5.33609 4.80338 5.66932 5.38877 5.34421 5.18429 5.0201 5.60688 5.63235 5.35821 5.60831 5.61974 5.67075 
-0.774858 -1.05778 -1.56959 -0.726032 -0.918359 -0.889115 -0.844646 -1.23606 -1.09377 -1.13966 -1.20463 -0.819795 -0.794231 -1.49107 -1.0417 -0.991706 -1.09388 -0.65352 -0.740858 -0.756102 -0.978658 -1.55817 -1.12602 -1.27386 -1.14828 -0.673608 -0.96914 -1.53604 -0.898227 -1.28758 -1.076 -1.39646 
-1.50959 -1.5612 -1.32127 -1.3158 -2.09013 -1.25338 -2.07383 -1.71888 -2.00639 -1.95126 -1.9912 -1.76316 -1.77848 -1.30055 -2.01868 -1.72077 -1.3403 -1.69107 -1.70438 -1.89643 -1.5561 -1.54204 -1.26724 -2.04108 -1.44732 -1.60931 -1.58356 -1.28842 -1.73753 -2.00636 -1.80844 -1.29763 
3.11806 3.44155 3.06692 3.34082 2.75117 3.39199 2.71067 3.01047 2.8812 2.97721 2.92877 2.78059 3.316 3.33592 3.09216 2.63454 3.40646 3.05173 3.18609 3.02603 3.01795 3.29403 2.87447 2.8869 3.20698 2.91914 2.94601 3.30068 2.70157 3.24399 2.51601 3.20222 
-2.71573 -2.19134 -2.66331 -2.73006 -2.09325 -2.44941 -2.65237 -2.10354 -1.99591 -2.35715 -2.08093 -1.99311 -2.78326 -2.34363 -2.17258 -2.16042 -1.90375 -2.05494 -1.85226 -2.30639 -1.92967 -2.76927 -2.25495 -2.61217 -2.4188 -2.09261 -2.07056 -2.44561 -2.31803 -2.00622 -2.39728 -2.74759 
-3.08248 -2.43345 -2.7173 -2.14581 -3.00555 -2.60564 -2.8525 -2.15788 -2.33138 -2.79571 -2.55945 -2.37523 -2.16608 -2.40462 -2.72949 -2.36856 -2.42357 -2.42694 -2.48075 -2.80505 -2.67098 -2.82248 -2.58602 -2.79237 -2.75644 -2.43106 -2.2251 -2.7557 -2.23536 -2.49484 -2.28054 -3.07887 
4.69264 4.82604 4.70562 4.96083 4.71879 4.71098 4.90733 4.58727 4.78941 4.88184 4.82619 4.56657 5.44069 4.71165 4.89999 4.5541 5.27475 4.54051 5.44671 4.91618 4.57452 4.69677 5.34954 4.95535 5.45134 5.12687 4.8107 5.46074 4.76007 4.52649 4.63886 5.13376 
-0.847064 -1.07336 -1.51037 -1.19552 -1.73961 -1.00413 -0.935058 -1.22986 -0.821357 -0.807271 -1.41463 -1.73952 -1.41618 -1.75982 -1.1122 -0.91551 -1.40205 -1.32528 -1.65345 -1.20133 -0.965735 -0.938837 -1.28099 -1.74165 -1.57545 -0.889831 -1.54533 -1.12491 -1.24607 -1.43321 -1.36242 -1.13903 
4.0987 3.8959 4.06735 4.53865 4.51704 3.94521 4.0455 4.5308 3.94819 4.23299 4.71381 4.1082 4.54138 4.59437 4.37375 4.18397 4.14485 4.51887 4.04587 4.61383 4.71219 4.67796 4.59729 4.09276 4.50524 4.61263 4.67133 3.94886 4.66056 4.33989 4.12053 4.36942 
3.48896 3.21191 3.23603 3.17033 3.12147 3.1914 3.16885 3.30147 3.31504 2.71248 2.7104 3.23981 3.37803 3.28638 3.46716 3.07223 2.72777 3.16231 2.81519 3.01474 3.31958 3.07196 3.10657 2.73892 3.3479 3.39708 2.9098 2.93406 3.10973 2.59234 3.34897 3.30692 
5.10104 5.62809 5.88518 5.0232 5.8833 5.15541 5.35759 5.34232 5.37432 5.42943 4.97846 5.23143 5.32846 5.37813 5.74515 5.85811 5.91393 5.76563 5.0107 5.94084 5.737 5.3055 5.7744 5.40171 5.27975 5.2565 5.52256 5.57991 5.8948 5.65568 5.15469 5.16333 
-1.71967 -2.15403 -2.21897 -2.27637 -2.15488 -2.31565 -2.13162 -2.25995 -2.21078 -1.77216 -2.12581 -2.11228 -2.17596 -2.47025 -1.7881 -2.52882 -2.0533 -2.39993 -2.18927 -2.28795 -1.93461 -1.9822 -2.3765 -1.9713 -1.70168 -1.95661 -2.1522 -2.15613 -1.96067 -2.52156 -2.27312 -1.80321 
5.53323 4.99422 4.94862 5.56671 5.53069 5.55233 4.78906 4.7344 5.27681 5.41656 5.08226 4.7357 4.84126 5.24638 4.7173 4.90776 5.09373 5.25952 4.74806 5.22118 4.97348 4.82734 5.37161 4.80436 5.51619 5.09599 5.47724 5.34738 5.11401 4.82076 5.06327 4.93191 
-3.30282 -2.99795 -2.8822 -3.05345 -3.53665 -3.09353 -3.65816 -2.90299 -2.98584 -2.96825 -3.08448 -2.73311 -2.75427 -3.55325 -2.85393 -3.17422 -2.96924 -2.75677 -3.03317 -3.49286 -3.03373 -3.46928 -2.97357 -3.65116 -3.60526 -3.54218 -3.27589 -3.19827 -3.44062 -3.16721 -3.6377 -3.6874 
-2.06096 -1.49991 -2.37335 -1.88262 -2.1033 -2.00611 -2.14443 -1.90112 -1.54682 -2.15191 -1.73229 -1.9696 -2.19249 -1.87791 -2.36963 -1.73154 -2.20076 -2.28908 -1.75578 -1.54335 -1.56171 -1.80303 -2.39521 -2.183 -2.281 -2.09466 -1.6059 -2.1745 -2.31908 -2.15739 -2.15106 -2.19864 
-2.26651 -2.20422 -1.80511 -1.72326 -2.09411 -1.74758 -2.33323 -2.60954 -2.60606 -1.77463 -2.40503 -2.58703 -2.06685 -2.47191 -1.87248 -2.28016 -2.35144 -2.59485 -2.14277 -2.04998 -2.42206 -1.95606 -1.93529 -2.27779 -2.43892 -2.13519 -2.09804 -2.08363 -2.48059 -1.74582 -2.21098 -1.79044 
-2.584 -2.60886 -3.08184 -2.81524 -3.00321 -3.05477 -3.24039 -2.46141 -2.62168 -3.05842 -2.60406 -2.7459 -2.43312 -2.45344 -2.53769 -2.40216 -3.22099 -2.61816 -2.78979 -2.6692 -3.13569 -2.93023 -2.78814 -2.39498 -3.10234 -2.94341 -3.23722 -2.81801 -2.47404 -2.61471 -2.88694 -2.51735 
0.672939 0.542915 1.22045 0.422097 0.394242 0.381567 1.16728 0.725706 0.438698 1.27187 0.851665 0.459031 0.380866 0.403364 0.343017 0.870761 0.666849 0.439347 1.27611 0.868925 0.67452 0.372093 0.713862 0.482751 1.01212 0.828033 1.0159 0.560311 1.02359 0.58607 0.777456 0.867447 
-0.75201 -1.04763 -0.994669 -0.61174 -0.996695 -1.02209 -1.19717 -0.782908 -1.38684 -0.915315 -0.593849 -1.40708 -1.33567 -0.816293 -0.609067 -1.3563 -1.07053 -1.21586 -0.626086 -1.4057 -1.02104 -0.882483 -0.813149 -1.46295 -0.720833 -0.950531 -0.886269 -1.21273 -1.16151 -0.742959 -1.37336 -1.10636 
0.523311 0.299397 1.00545 0.696578 0.798038 0.565077 0.884254 1.06703 0.522426 0.213281 0.417281 0.415266 0.779458 0.507757 0.599554 0.758271 0.7347 0.589977 0.710425 0.716779 0.819074 0.91232 0.589946 0.671407 0.697959 0.561115 0.351284 0.767181 0.932935 0.283583 0.797047 0.804198 
-0.659703 -0.859239 -1.29098 -0.947951 -1.23787 -0.642402 -1.05768 -1.04417 -0.654704 -0.676697 -1.06378 -1.11955 -0.846193 -0.669108 -0.833655 -1.25515 -1.20193 -1.04133 -0.809433 -1.35254 -0.743932 -1.2481 -0.895868 -0.525825 -1.25823 -0.946829 -1.25497 -1.39814 -0.695371 -1.10809 -1.23938 -0.510112 
-0.0192758 -0.178019 0.205455 0.220858 -0.254166 -0.137563 -0.405265 0.0435389 -0.355639 -0.0994253 -0.305812 -0.092036 0.0714986 -0.0766878 -0.5134 -0.421962 0.185819 -0.274802 -0.584981 -0.265968 0.25523 -0.139459 0.0927844 0.0321621 -0.71949 0.0193165 -0.0429503 -0.656991 -0.187669 -0.401448 0.0497176 -0.625431 
0.0301577 0.367042 0.212442 -0.122073 0.476945 -0.237887 0.565148 -0.010789 0.272545 0.10389 -0.00728265 0.415367 0.640893 -0.270566 -0.0241577 -0.268897 0.325842 0.441502 0.500824 0.341857 0.566837 -0.271508 -0.0355826 -0.141647 0.512177 0.639369 0.2753 0.0241292 0.144693 0.121448 0.341284 0.256445 
2.9542 3.06559 2.5704 3.25078 3.0291 2.51391 3.20895 2.44299 3.00355 3.35173 3.27243 2.79015 3.35949 2.95615 2.74046 2.68162 2.52451 2.91406 2.7627 3.30955 3.37394 2.56566 2.78566 2.50189 2.55052 3.34301 3.0662 3.21123 2.38608 2.94196 2.90633 3.03208 
3.68919 3.05277 3.81184 3.62925 3.45513 2.89816 3.09692 3.62592 3.06197 2.91687 3.67886 3.52409 3.69828 3.1521 3.06018 3.47368 3.53203 3.78704 3.19208 3.57816 3.8047 2.91979 3.81585 3.07881 2.934 3.42011 3.43754 3.52597 3.56192 2.87143 3.24288 3.14266 
-0.283204 -0.614941 0.305887 -0.514062 -0.158348 0.135527 0.0861233 -0.530158 0.22304 -0.0346056 0.163348 0.297049 0.169482 0.297557 -0.470831 -0.162965 -0.331849 -0.369275 -0.412794 0.263925 0.0281771 -0.235752 -0.369949 -0.592809 -0.243507 0.0651953 0.298733 -0.235571 -0.229492 0.142813 0.147862 -0.299769 
-2.24284 -2.31034 -2.17455 -2.85189 -2.93959 -2.46149 -2.95784 -2.76863 -2.52654 -2.67282 -2.84861 -2.40853 -2.98341 -2.55702 -2.28993 -3.09613 -2.51657 -2.38117 -2.75964 -2.68915 -3.02463 -2.77609 -2.23205 -2.38543 -2.6167 -2.89598 -2.98446 -2.39202 -2.16378 -2.88947 -2.60889 -2.78718 
-1.84389 -1.34223 -1.86114 -1.84508 -1.04388 -1.09202 -1.87007 -1.11779 -1.553 -1.27216 -1.1073 -1.78785 -1.44452 -1.81867 -1.43783 -1.58893 -1.87501 -1.09585 -1.7365 -1.08809 -1.40109 -1.19969 -1.82766 -1.37242 -1.29046 -1.71121 -1.19917 -1.07498 -1.29841 -1.43393 -0.91764 -1.16808 
-1.15626 -1.06374 -1.23723 -1.63486 -1.26661 -1.38249 -1.02519 -1.72397 -1.59226 -1.97069 -1.34243 -1.83928 -1.65221 -1.41695 -1.59568 -1.97105 -1.61167 -1.29031 -1.28409 -1.39181 -1.85936 -1.33675 -1.8879 -1.88696 -1.62264 -1.52469 -1.13435 -1.07112 -1.56048 -1.09413 -1.16069 -1.37674 
-0.205295 0.548854 0.534572 0.193797 -0.131731 -0.218493 -0.0716212 0.207867 0.573758 0.322435 -0.216117 0.0550303 0.322061 0.584683 0.271219 0.408283 0.0436246 0.517726 -0.14913 0.403393 0.182333 -0.29997 0.622099 -0.202609 -0.0996607 -0.195634 0.529353 0.353339 0.57803 0.316188 -0.160688 0.61331 
-1.31325 -1.39603 -0.764723 -1.54981 -0.814285 -0.783119 -1.22127 -1.54908 -1.07661 -1.10445 -1.30399 -1.094 -1.29256 -1.27086 -1.27871 -0.876739 -1.37862 -1.01895 -1.08036 -1.24566 -1.37184 -1.51493 -0.772349 -0.663021 -1.38819 -1.43085 -0.863942 -0.675406 -1.08131 -1.40271 -1.14957 -1.23882 
-0.909054 -1.47321 -1.17455 -0.575635 -1.11912 -0.53553 -1.01275 -1.24186 -0.673189 -0.726126 -1.06835 -0.789778 -0.897683 -0.670389 -1.05947 -1.24108 -1.47143 -0.972459 -0.691037 -1.36935 -1.25226 -0.67313 -0.907786 -0.637338 -1.29518 -0.703192 -0.810562 -1.47821 -1.33149 -0.672393 -0.743129 -0.96383 
3.27084 2.71701 3.13329 2.76726 3.29508 2.66899 3.43856 2.65641 3.33528 3.04697 2.94473 2.78602 3.29487 3.26812 3.52474 2.65277 2.8033 3.61215 3.34851 3.24012 2.95272 3.12305 2.80567 3.33813 3.01533 3.60375 3.11434 2.83999 3.13468 2.66109 2.88528 3.20741 
-1.10976 -1.53938 -1.27664 -1.89769 -1.26032 -1.80765 -1.81014 -1.72534 -1.10628 -1.42497 -1.11756 -1.52681 -2.01564 -1.31412 -1.72865 -1.24487 -2.00442 -1.50622 -1.98669 -1.07542 -1.35913 -1.97805 -1.88423 -1.76469 -1.13059 -1.13475 -2.0063 -1.6782 -1.36056 -2.00005 -1.29697 -1.42109 
3.49338 3.22928 3.23819 3.5878 3.85664 3.19363 3.90282 3.6928 3.83714 3.47948 3.00061 3.62214 3.22028 3.48967 3.56537 3.96887 3.44616 3.66735 3.40588 3.46388 3.53172 3.93169 3.39765 3.04108 3.41489 3.71646 3.02473 3.43664 3.81146 3.51581 3.3182 3.45373 
-1.25664 -1.0074 -1.29932 -0.883465 -1.07479 -1.18649 -0.878229 -0.756289 -0.891032 -1.12381 -1.09109 -0.683499 -1.28807 -0.439685 -1.31313 -0.555619 -1.33769 -1.35944 -1.00106 -0.621112 -1.02523 -1.22516 -1.101 -1.02517 -1.07503 -0.72171 -1.20624 -0.594061 -1.07793 -0.63249 -0.810686 -0.629681 
0.0748262 -0.0851454 0.159318 0.0192012 0.506699 0.8522 -0.0573473 0.202836 0.471384 0.0346558 0.280837 0.0888371 0.418933 0.516557 0.42366 0.285713 -0.102416 0.0493035 0.329365 0.657783 0.623392 0.0989849 0.401307 0.197752 0.471415 0.872312 -0.0925578 -0.0908192 0.524622 0.413011 0.357146 0.826382 
3.0479 2.59629 3.03436 3.30206 2.75076 3.08285 3.27171 3.01238 2.72788 2.71032 3.11711 3.13426 2.924 2.82657 2.44488 2.74468 2.54861 3.04498 3.2282 2.92872 2.69498 2.46209 2.53427 3.0557 3.20625 3.22268 3.33681 3.27877 2.76149 2.41704 2.64678 2.46498 
0.516613 0.336918 0.292851 0.944712 0.636715 0.475906 1.10555 0.594568 1.03941 0.332439 0.995359 0.628894 0.611248 0.238986 0.455292 0.566116 0.286809 0.439075 1.13287 0.821129 0.24997 0.57932 0.986262 0.357075 0.616004 0.802708 0.604141 0.831932 0.603714 0.370865 0.985773 0.41875 
2.80956 2.29996 2.62369 3.00651 3.10533 2.34387 2.65437 2.46016 3.02245 3.18164 3.20036 2.83151 2.83699 2.81539 2.40633 3.07674 2.28504 2.89469 3.18119 3.03654 2.31526 2.53892 2.67774 2.49914 2.64479 2.90344 2.95045 2.96569 2.98521 2.61712 2.52094 2.41656 
-1.70051 -1.9738 -1.99064 -1.77284 -1.35759 -1.12258 -1.0968 -1.73271 -1.65684 -1.04895 -1.67182 -1.33506 -1.50168 -1.45966 -1.992 -1.2325 -1.29223 -1.50555 -1.19111 -1.06241 -1.57139 -1.68174 -1.69166 -1.962 -1.72391 -1.75692 -1.09496 -1.25409 -1.61451 -1.60427 -1.82671 -1.67763 
2.83831 2.9561 3.15729 3.43003 2.72393 2.72167 3.12702 3.30391 3.13383 3.22869 2.68796 3.17343 3.47384 2.76283 3.22612 2.75749 3.27784 3.1754 3.19773 3.04022 3.15896 3.27041 2.81912 3.14481 2.98283 3.38094 2.77458 3.35803 3.25502 3.31552 3.10978 2.64873 
3.33942 2.95111 3.11147 3.16445 3.35649 3.34208 3.34031 3.04954 2.61488 2.97635 2.90004 3.07446 3.22002 2.74711 2.85013 3.30482 2.72737 3.31876 2.81669 3.47304 2.61581 2.69506 2.95584 3.19096 3.30084 3.34588 3.09555 2.66391 2.6321 2.93186 3.31586 3.05334 
3.84749 3.36548 3.26178 3.68717 3.21265 3.28427 3.47059 3.20702 3.0969 3.68793 3.9771 3.83263 3.78803 3.77508 3.5095 3.96375 3.90967 3.79221 3.51458 3.16649 3.51084 3.85558 3.34612 3.772 3.88462 3.62982 3.84437 3.25819 3.14138 3.77093 3.63368 3.47996 
1.22842 0.750552 1.08418 0.72118 1.26266 0.750833 1.01208 0.426524 0.733818 1.06208 0.997074 0.354585 0.564239 0.82304 0.415311 1.22181 0.517391 0.664005 1.22957 0.464192 0.910283 0.742895 1.18817 0.432358 1.22016 0.942365 1.05099 1.21477 0.754442 1.08461 0.475202 0.793178 
-1.94826 -2.20373 -1.97939 -1.64737 -2.28421 -2.40036 -2.06225 -1.73305 -1.58293 -2.1097 -2.00023 -2.03794 -1.81044 -1.53327 -1.69653 -1.60729 -2.00508 -1.87489 -2.13834 -1.87733 -1.90958 -2.04315 -1.86032 -2.36133 -2.48099 -1.9142 -2.27207 -2.06354 -2.29935 -2.27953 -2.2077 -2.25121 
3.33619 2.88265 3.19359 3.6817 3.64003 2.85425 3.35801 2.74543 3.42684 3.72035 3.70538 2.89519 3.16812 3.57069 2.99564 3.37328 3.13677 3.11966 2.95017 2.85915 3.24447 3.33259 3.05312 3.22753 3.34159 3.65672 3.49155 2.85976 3.0103 2.76137 3.55639 3.54155 
3.4969 3.30233 3.38074 2.87312 3.13055 2.98571 3.59994 3.45992 3.4719 2.96933 3.4997 3.53616 2.95699 3.29033 3.5257 3.5697 3.20665 3.40644 3.76264 3.47405 3.48331 3.06649 2.92738 3.76552 3.79407 3.04847 3.73607 3.49252 3.77134 3.67774 3.06974 3.04652 
3.45682 3.15919 3.11733 3.19445 3.19371 2.7479 3.21055 2.64982 2.76863 2.86099 2.52073 3.36383 2.99896 3.159 3.18081 3.03145 2.95277 2.62457 3.28178 2.90123 2.92423 2.68908 3.01211 3.35134 3.39672 2.52061 2.53855 3.45185 3.0013 3.26363 2.79016 2.67262 
-1.66705 -1.85953 -1.62106 -1.248 -1.43868 -2.00792 -1.32361 -1.16873 -1.29357 -1.77833 -1.66854 -1.33449 -1.55677 -1.22777 -1.81682 -1.87994 -1.68036 -2.02783 -2.05639 -2.10806 -1.63154 -1.20134 -1.48763 -1.58754 -2.10496 -2.08454 -1.58966 -1.82406 -1.58895 -1.62018 -1.85163 -1.82478 
3.54449 3.60271 3.70011 3.6011 3.77706 3.72907 3.57134 3.02819 3.02961 3.54625 3.08463 3.68659 3.24364 2.94745 2.81082 3.62215 3.5576 3.31531 3.69679 3.07394 3.4352 3.22829 3.6901 2.82139 3.2778 3.71311 3.45855 3.02637 3.53462 3.08121 3.62157 3.73664 
3.47496 4.23884 3.82092 4.31199 3.82457 3.83542 4.12365 4.23156 4.35328 3.67045 4.09907 4.20538 3.79656 4.2444 4.03485 3.42772 3.87286 3.88732 3.77508 3.74497 4.17756 3.56305 3.50356 3.50948 3.59158 3.80383 3.96762 3.95021 4.33547 4.22571 4.3878 3.63212 
-1.44758 -0.795734 -1.21339 -0.776405 -0.761865 -0.92047 -1.55579 -1.25547 -1.52383 -1.15011 -0.952342 -1.24052 -0.9436 -0.738932 -1.3181 -1.41979 -1.46544 -1.66404 -1.33539 -1.17066 -0.751948 -1.62785 -1.28501 -1.38569 -1.13328 -1.54826 -1.45034 -1.40573 -1.58816 -1.32015 -1.50092 -0.716008 
-1.05773 -1.26123 -1.36932 -1.02113 -1.15405 -1.10081 -0.974714 -1.38377 -1.2115 -1.53244 -1.42777 -1.83957 -1.73685 -1.84425 -1.00901 -1.0087 -1.47102 -1.60195 -1.15564 -1.37302 -1.48422 -1.18938 -1.41396 -1.87758 -1.09984 -0.978613 -1.22563 -1.07138 -1.52502 -1.18501 -1.6294 -0.958473 
-1.61528 -1.03231 -0.833458 -1.59771 -1.56171 -0.92799 -1.22624 -1.37055 -1.67074 -1.19551 -0.942734 -1.56117 -1.38666 -1.53096 -1.42316 -1.71483 -1.58993 -1.23883 -1.39411 -1.40102 -1.14968 -1.5184 -1.33508 -1.31072 -0.986444 -1.1316 -0.973552 -0.871833 -1.62472 -1.50096 -1.19669 -1.13175 
3.71756 3.60507 3.65377 3.07808 3.49703 3.47814 3.39441 2.82513 3.23909 3.68353 3.37801 3.39084 3.01591 2.8217 2.87778 3.28378 2.86545 3.62343 3.61702 2.98613 2.83082 2.98211 3.3986 3.25005 3.71253 3.78722 3.1135 3.14491 3.57516 3.58867 3.47403 3.0011 
-1.19382 -1.31384 -1.4689 -1.76152 -1.0117 -1.20464 -1.61091 -1.63847 -1.32983 -1.70886 -1.42729 -1.56558 -1.15298 -1.31984 -1.87951 -1.02826 -1.41843 -1.44679 -1.19979 -1.35324 -1.50189 -1.21267 -1.03071 -1.1542 -1.55283 -1.02153 -0.989255 -1.49564 -0.971475 -1.17981 -1.20711 -1.19106 
3.40064 3.52439 3.4017 3.59817 3.29706 3.51664 2.87218 3.40049 3.64806 3.05917 2.85152 3.47966 2.8957 3.27492 3.14484 3.36427 3.12452 3.36759 3.22225 2.94726 3.28261 3.14764 3.22996 3.55174 3.57397 2.93009 2.93006 3.27321 3.12012 3.69848 2.8263 3.68798 
2.92645 2.50648 2.82416 3.21717 2.94126 2.67406 2.41833 2.94038 2.90459 2.51231 2.36812 2.78107 3.10307 2.40776 3.25408 3.24178 2.76344 2.9724 2.8714 2.57608 2.81998 2.85587 2.42521 3.23166 3.15933 3.13852 2.92913 2.84301 2.35358 2.28199 3.05277 2.82687 
-1.37287 -0.831257 -0.622916 -1.43247 -1.21727 -1.02401 -0.87148 -1.11156 -1.04428 -0.680114 -0.696161 -1.00937 -1.25326 -1.45085 -0.720527 -0.664708 -1.43457 -0.579637 -1.19607 -1.35229 -0.97655 -0.616025 -0.635585 -1.30216 -0.958082 -0.689449 -0.833379 -0.992996 -1.4186 -0.713503 -1.46433 -0.663446 
2.98859 3.73954 3.21167 2.99144 3.42499 3.29611 3.16868 3.54506 3.60091 2.85033 3.41149 3.68576 2.84267 3.29958 3.1091 2.80282 2.84334 3.46205 3.57586 3.15127 3.6115 3.39017 2.92752 3.12868 3.36566 2.82293 3.33662 3.48878 3.39891 3.63496 3.31282 2.77011 
-0.919797 -0.680637 -0.792637 -0.953144 -1.43678 -1.08637 -1.04911 -1.09261 -0.819245 -0.680456 -0.822488 -1.39957 -1.50666 -1.26734 -1.11766 -1.57992 -1.49294 -1.28663 -1.41685 -0.718004 -0.690951 -1.10096 -0.789227 -1.57575 -1.20997 -1.082 -1.1072 -0.856733 -1.50073 -1.38232 -1.21625 -0.721705 
0.630951 1.07883 1.20512 0.573959 0.9906 0.643476 1.31052 0.725595 0.711286 1.04644 1.04433 0.732555 0.914309 1.38184 1.16016 0.76536 1.06691 0.835547 1.06659 0.523554 1.03582 0.501192 0.792531 1.20066 0.638737 0.907345 1.1997 1.13902 0.670277 1.053 0.697924 0.869911 
3.16162 3.38863 3.13226 2.82718 2.90542 3.01391 2.72689 2.73875 3.01416 3.5255 3.52273 3.57917 2.71638 3.59169 3.13901 3.40446 2.94254 2.74222 3.42945 2.76446 3.03277 3.47266 2.79471 3.13065 3.08397 3.31975 2.77059 3.11071 3.08313 3.52997 3.42417 3.46546 
-0.579592 -0.829328 -0.694135 -1.07719 -0.869219 -0.393301 -0.501389 -1.0266 -0.881097 -1.16887 -0.451555 -0.567505 -0.86925 -0.340533 -1.11079 -0.806689 -0.348918 -1.13555 -0.553079 -1.22933 -0.786816 -0.800117 -0.724688 -0.898537 -0.525005 -0.772537 -0.549345 -0.540137 -0.433974 -0.36491 -0.735573 -0.681095 
-4.0561 -3.49104 -3.87791 -3.65953 -3.19816 -3.30059 -3.41977 -3.62884 -3.17286 -3.85897 -3.86874 -4.00334 -3.28504 -3.37384 -3.98511 -3.11787 -3.41498 -3.22019 -4.02664 -3.35576 -3.21033 -3.32545 -3.15378 -4.0351 -4.02674 -3.14246 -3.78339 -3.94337 -3.72617 -3.33371 -3.95758 -3.41872 
2.99919 2.67591 2.99431 3.02746 3.35525 3.18288 3.38308 2.81303 2.76363 2.88452 3.25866 3.36369 3.31377 3.141 2.71671 3.17646 2.85751 3.30358 2.85342 2.99815 3.27668 2.60177 2.67228 2.46625 2.47698 2.64298 3.02116 3.13092 2.59853 2.55298 3.12137 3.32934 
-1.67954 -1.34525 -1.02647 -1.10501 -0.918815 -1.75743 -1.50205 -1.35277 -1.13093 -0.822471 -1.38842 -1.31695 -1.35601 -0.86954 -1.72039 -1.74157 -1.02645 -1.06204 -1.38986 -1.62018 -0.958608 -1.12561 -1.01919 -1.15617 -1.70774 -1.30133 -1.51566 -1.04344 -1.18205 -1.53725 -0.992643 -0.863317 
3.55512 2.84493 3.37344 3.49913 2.79752 2.8867 3.21499 3.36737 3.15 2.57234 3.06903 2.6797 2.90655 3.4146 2.73668 3.40484 3.47718 2.59311 2.98932 2.95802 2.98057 3.3384 2.84086 3.51347 2.72849 2.58554 3.43928 3.42436 2.75929 3.4752 2.96273 2.72184 
2.80729 3.37587 3.10853 3.38556 3.16016 3.43917 3.00564 2.97555 2.95091 3.29428 3.17318 3.10125 3.20337 3.03029 3.27752 3.46465 3.24699 2.90009 3.37491 2.94868 2.83457 3.042 3.37106 3.34387 3.47507 2.57821 3.38892 3.40989 3.07396 2.92572 3.34097 3.25961 
1.4073 1.05981 1.64523 1.02846 1.65005 1.3619 1.34712 0.874676 0.919039 1.30238 0.995184 1.61431 1.41971 1.19873 1.11871 1.65756 1.4694 1.18684 0.698287 1.44822 1.15363 1.21026 0.783893 1.63235 1.51133 1.61476 1.35128 0.729967 1.23199 1.28197 1.57166 1.38759 
3.23742 3.56673 3.22354 3.01766 2.75735 3.49395 2.9939 3.10148 3.20406 3.40877 3.35367 3.02412 3.45066 3.52557 2.72716 2.85238 2.84617 2.65909 2.62143 2.71089 3.50033 3.4564 3.50782 3.31962 3.31582 3.55354 3.10742 3.30071 2.70708 3.42114 3.33429 3.35779 
3.42118 4.20641 3.57345 3.84884 3.70565 3.81946 3.69788 4.08153 4.20706 4.05934 3.60124 4.00043 3.94879 3.75411 3.58619 4.25646 4.29069 4.12663 4.31159 3.84988 4.17369 3.53226 4.01877 3.71873 3.63133 3.852 3.94824 3.96451 3.72398 4.31486 4.2807 3.80923 
-2.10094 -2.41592 -2.47431 -2.51975 -1.94368 -1.99454 -2.20189 -1.78599 -1.77612 -2.06963 -1.8696 -2.30605 -2.10898 -1.69825 -2.2365 -1.85017 -2.30586 -2.30245 -1.87682 -2.52567 -2.12237 -2.12491 -2.61742 -1.91387 -1.98725 -1.83476 -1.77034 -2.02054 -2.15279 -2.22998 -2.22852 -2.64244 
-1.09995 -1.26355 -1.64447 -1.32784 -0.838104 -1.09568 -1.37136 -0.741698 -1.27092 -0.711975 -1.0905 -0.921215 -0.985816 -1.20318 -1.68349 -0.939189 -1.03403 -1.04607 -1.2259 -1.02532 -1.04861 -0.932341 -1.43995 -0.892285 -1.666 -1.15835 -1.12668 -1.46389 -1.60459 -1.48463 -1.03341 -1.10441 
2.54117 3.16621 2.58963 2.8354 2.74786 3.08076 3.18847 3.00838 3.10163 2.73168 2.98228 2.76652 2.49292 2.54752 2.97237 2.62553 3.12631 2.90874 3.18187 3.41962 3.22902 2.50395 3.31963 2.46694 3.27338 3.41838 2.8707 3.27902 3.07868 3.20711 2.85749 2.52171 
-1.43013 -1.66149 -1.41374 -1.41842 -1.33119 -1.33281 -2.08857 -1.97156 -1.57166 -1.18707 -1.65531 -1.4632 -1.42562 -1.56243 -1.14303 -1.78877 -1.25154 -1.48085 -1.78736 -1.93251 -1.32929 -1.9689 -1.24187 -1.41642 -1.73616 -1.45946 -1.82572 -1.78511 -1.21827 -1.98264 -1.25482 -2.02246 
3.7098 3.99915 3.92085 3.10729 3.27022 3.60124 3.80731 3.92949 3.68488 3.48308 3.15494 3.78541 4.01667 3.17294 3.8048 3.27698 3.38128 3.08125 3.85272 3.7098 3.67012 3.3568 3.6611 4.00957 3.58972 3.11447 3.88399 3.82943 3.82373 3.85986 3.66708 3.09564 
0.510951 1.17216 1.25732 1.05878 1.19827 0.53544 0.630076 1.34616 0.728367 0.843295 0.67904 1.37274 0.910913 1.15745 1.20089 1.25191 1.38094 1.09421 1.24708 0.685283 0.972926 0.918392 1.40037 1.2436 1.43749 1.27542 1.24436 1.15273 0.851693 1.44477 1.22149 0.704756 
-1.37365 -1.67735 -1.39 -1.16835 -1.2682 -0.912598 -1.11983 -0.912686 -1.50363 -1.49074 -1.4551 -1.1163 -1.0926 -1.21117 -1.68104 -1.20965 -0.764108 -1.43737 -1.15036 -1.00601 -1.09106 -0.911813 -0.785733 -1.01684 -0.926057 -1.33233 -1.1888 -1.11154 -0.897326 -1.56103 -1.12872 -1.15581 
-1.16113 -1.57233 -1.61721 -1.40247 -1.22554 -1.05518 -1.98394 -1.70124 -1.92618 -1.40265 -1.25497 -1.32333 -1.6298 -1.51587 -1.70223 -1.19377 -1.38902 -1.0341 -1.46318 -1.51417 -1.49956 -1.65639 -1.72058 -1.73432 -1.06929 -1.57925 -1.44184 -1.44483 -1.4605 -1.51426 -1.02659 -1.17271 
-1.03578 -1.13987 -0.789949 -0.894657 -1.24811 -1.36572 -0.84661 -0.87632 -1.45459 -1.37611 -1.42918 -1.27692 -0.931514 -1.47818 -0.967886 -0.666367 -0.936082 -0.776395 -0.622593 -1.46017 -0.815725 -1.09728 -0.614473 -0.869729 -0.605654 -0.9731 -1.31026 -0.772934 -1.48204 -0.867306 -1.32487 -0.920396 
-0.984261 -1.39617 -1.69914 -0.974303 -1.22491 -1.26745 -1.46631 -1.77062 -1.7809 -1.33724 -1.288 -1.16405 -1.37715 -1.72814 -1.53739 -1.1877 -1.48382 -1.18145 -0.978389 -1.5731 -1.74752 -1.78279 -1.49848 -0.894647 -1.83763 -1.34168 -1.12096 -1.0695 -1.83729 -0.934073 -1.0182 -1.57667 
-1.88926 -1.95154 -1.97615 -1.32112 -1.4363 -1.16354 -1.94397 -1.70029 -1.53128 -1.72321 -1.74304 -1.43987 -1.90548 -1.93026 -1.78149 -1.22815 -1.18808 -1.35774 -1.64713 -1.87569 -1.59779 -1.43255 -1.79052 -1.16451 -1.15821 -1.19135 -1.83055 -1.70093 -1.82443 -2.10613 -2.11124 -1.23497 
3.54144 3.23257 3.36533 3.25109 3.57096 3.66612 3.71199 3.51812 3.94475 3.6245 3.74226 3.28439 3.36601 3.37419 4.02597 3.21546 3.18642 3.26843 3.74602 3.47552 3.21345 3.45816 3.21994 3.35149 3.48042 3.71159 4.03378 3.85341 4.01338 3.25149 3.19949 3.52253 
3.97692 3.87055 3.82931 3.86458 3.05189 3.066 3.53613 3.45061 3.56793 3.55783 3.28642 3.32608 3.11541 3.81446 3.63572 3.50431 3.06988 3.90949 3.18475 3.25364 3.00932 3.50922 3.25773 3.09702 3.29434 3.20125 3.54765 3.08131 3.91975 3.10035 3.92591 3.44434 
-3.83211 -3.83808 -3.7222 -3.6088 -3.14728 -3.11936 -3.60108 -3.11452 -3.62442 -3.60278 -3.66091 -3.26263 -3.393 -3.00688 -3.35124 -3.72657 -3.94969 -3.71297 -3.03938 -3.05901 -3.27975 -3.65855 -3.10461 -3.23603 -3.34713 -3.38422 -3.87638 -3.83703 -3.25327 -3.70274 -3.13749 -3.45464 
-1.78774 -1.976 -1.82557 -2.30409 -2.25148 -1.76959 -1.70787 -1.86658 -2.21342 -1.79455 -2.01814 -2.39841 -2.00581 -2.19929 -2.1903 -2.34897 -1.93789 -2.14596 -1.96769 -1.9464 -1.8317 -2.17261 -2.13219 -2.42071 -1.70417 -1.9513 -2.20053 -1.71802 -1.78167 -2.03475 -2.04758 -1.67063 
3.82011 4.32289 3.83552 3.76738 4.42256 3.64789 3.55041 4.15185 3.7298 4.00814 4.09926 4.06619 4.447 4.42343 4.09386 4.34877 3.64069 3.97483 4.11664 4.23577 4.20306 4.20708 4.11974 4.30074 4.48925 4.48792 4.35345 3.84183 4.11146 3.66325 4.37458 4.00531 
4.03717 3.78923 3.1829 3.72069 3.74039 3.92208 3.60608 3.49954 3.61215 3.57174 3.2754 3.49349 3.18761 3.59687 3.77347 3.85589 3.66714 3.84151 3.65074 3.27126 3.65686 3.17203 3.90153 3.49452 4.03168 3.84275 3.42808 3.2204 3.14973 3.22253 3.64261 3.27504 
3.60239 3.97514 3.03457 3.85528 3.38786 3.37992 3.30975 3.37407 3.41774 3.67837 3.87285 3.33709 3.32039 3.25716 3.35719 3.13055 3.68486 3.61208 3.85562 3.03283 3.35728 3.69419 3.69286 3.18719 3.14994 3.79011 3.27015 3.07211 3.09145 3.96668 3.40981 3.60123 
0.0346933 -0.221552 0.293301 -0.0483907 -0.449258 0.0343832 0.0789878 0.0160613 -0.0263233 0.331316 -0.57578 -0.424155 -0.542448 0.219984 0.00355277 0.235342 0.0666533 -0.342667 0.113597 -0.0401076 -0.44541 -0.402097 -0.368041 -0.489791 0.0139382 -0.617896 -0.63023 -0.498495 0.102596 -0.042712 0.064652 -0.578306 

0.21899 -0.0564207 -1.73503 -2.43782 -1.56854 -1.76361 -0.0320456 0.169715 -9.28397 -13.3656 0.575227 1.38149 -15.4604 0.0681907 0.0310683 0.730855 0.186398 0.143206 -14.0048 -17.1922 0.239619 -18.0595 -15.7072 1.68232 39.9051 -40.5107 -4.10354 0.307183 -2.25626 -0.0154826 -1.42812 -1.51444 0.351471 -75.8866 -35.2736 0.925411 120.394 99.8308 0.929887 40.2556 -32.6913 37.1465 11.0755 -4.43057 -62.9168 129.555 25.7036 0.40237 97.3072 67.368 36.6267 -43.1387 -15.5652 21.1959 -27.4785 32.4959 2.41531 13.117 14.9239 74.5884 40.869 16.312 -46.7576 72.2909 -49.2646 20.8561 18.6144 -52.6338 73.7528 13.936 -29.5601 9.6712 -3.88423 -17.6731 -33.0944 -63.8327 -15.7582 95.897 7.0002 9.77401 -82.8294 -0.0194847 2.43165 -87.0498 -1.9291 0.158932 37.6032 -0.717856 1.84002 -4.73027 -3.00743 0.996422 -14.1628 -0.484721 -2.94179 12.8115 0.0441105 -0.339756 -4.47039 -16.8845 -14.0178 -5.76506 0.0630879 -2.54301 -17.7194 -5.67414 -1.97411 -3.88526 -3.50033 -2.70607 -14.4409 -3.48039 -17.2297 -2.62796 -0.442593 -18.2399 -4.55568 0.160964 2.18226 -1.55666 1.04053 -9.64578 0.0993111 2.5851 0.031263 -0.568284 1.99631 -1.36542 1.56523 61.6696 13.2939 -17.7636 0.951794 48.1803 -0.896816 16.6556 -14.3799 -14.27 -0.864412 1.47457 13.6955 -24.5959 -10.39 -5.11911 39.7221 -7.77018 -1.07051 12.602 2.4264 4.40262 81.3846 16.4141 -5.80137 3.65616 -14.9793 3.05106 15.7769 -8.26274 4.05699 5.4545 17.9651 0.776327 -27.6892 11.8978 3.73963 14.3136 -23.1921 1.52041 -2.39221 3.6749 -26.761 -7.02294 19.1321 27.4225 5.9794 -3.59255 35.8082 0.248217 -7.56228 -7.85964 -6.35546 -3.38267 -22.345 -2.02928 -15.9683 -13.9513 -18.0587 -11.2311 -8.23884 -15.3565 -17.7456 -15.1976 -4.64985 -23.9803 -6.69008 -7.93125 -4.0713 -1.45832 0.614214 -6.41775 0.301651 -3.81126 6.09246 -7.64421 -0.29208 4.78543 -1.1056 -7.37467 2.61051 -14.5725 1.94489 -2.52684 -12.7556 -6.70691 -15.3924 3.63953 -18.8786 2.47069 -17.9945 1.85143 4.69378 -7.06401 -8.17675 6.57246 -4.06411 61.9364 1.65739 0.0489438 0.717453 4.32825 -0.105956 0.709458 -12.86 2.74549 1.97216 4.49609 7.97489 0.465058 -1.04899 0.407919 -16.4715 1.87782 -12.2095 1.60147 -0.75234 2.38637 39.6601 -8.13212 -16.6357 -6.62948 7.66988 -19.4157 25.6137 -10.8762 -2.15974 -12.596 0.027038 2.04923 6.33259 5.359 4.02165 6.6278 4.60371 4.52134 1.38425 1.63663 -10.523 -6.77338 -4.99885 8.00052 -1.84684 0.731639 10.0827 -4.22446 2.81883 26.7657 3.40245 -2.4631 42.1419 5.67098 -16.0175 -15.6871 -15.1089 -1.9703 -7.66793 23.7112 -30.6871 -17.5864 1.23134 -22.5082 3.99971 -14.7688 13.2931 6.65567 -4.36395 2.97071 -17.8309 -8.93573 -1.80125 0.251538 
